Division,WeightClassKg,Place,Name,Team,BodyweightKg,Best3SquatKg,Best3BenchKg,Best3DeadliftKg,TotalKg,Equipment,Event,Sex
Girls,44.23,1,Lori Olvera,Alvarado,44,68.04,45.36,88.45,201.85,Single-ply,SBD,F
Girls,44.23,2,Clarissa Castaneda,Hillsboro,42.86,68.04,38.56,90.72,197.31,Single-ply,SBD,F
Girls,44.23,3,Jessica Duque,Hillsboro,40.82,61.23,31.75,83.91,176.9,Single-ply,SBD,F
Girls,44.23,4,Kirsten Boyd,Alvarado,39.01,68.04,34.02,70.31,172.37,Single-ply,SBD,F
Girls,44.23,DQ,Taylor Haas,Alvarado,43.09,61.23,34.02,,,Single-ply,SBD,F
Girls,47.85,1,Guadalupe Gobellan,Hillsboro,46.27,106.59,47.63,106.59,260.82,Single-ply,SBD,F
Girls,47.85,2,Cam Olivarez,Teague,46.72,92.99,40.82,81.65,215.46,Single-ply,SBD,F
Girls,47.85,3,Judith Marcos,Hillsboro,46.95,83.91,29.48,70.31,183.7,Single-ply,SBD,F
Girls,51.94,1,Jacqueline Washington,Hillsboro,50.12,120.2,63.5,131.54,315.25,Single-ply,SBD,F
Girls,51.94,2,Kalen Ruiz,Venus,51.48,117.93,58.97,124.74,301.64,Single-ply,SBD,F
Girls,51.94,3,Abril Arrezola,Teague,50.35,122.47,47.63,97.52,267.62,Single-ply,SBD,F
Girls,51.94,4,Chesney Richards,Corsicana Mildred,49.44,97.52,58.97,102.06,258.55,Single-ply,SBD,F
Girls,51.94,5,Mayra Rodriguez,Teague,50.35,86.18,34.02,99.79,219.99,Single-ply,SBD,F
Girls,51.94,6,MaKayla Wiggins,Corsicana Mildred,50.12,70.31,34.02,102.06,206.38,Single-ply,SBD,F
Girls,51.94,7,Britney Smith,Blooming Grove,51.03,79.38,31.75,81.65,192.78,Single-ply,SBD,F
Girls,51.94,8,Olivia Hernandez,Alvarado,49.44,65.77,38.56,79.38,183.7,Single-ply,SBD,F
Girls,51.94,9,Mariza Martinez,Rice,50.8,68.04,36.29,77.11,181.44,Single-ply,SBD,F
Girls,51.94,DQ,Mikennya Echols,Venus,51.48,88.45,49.9,,,Single-ply,SBD,F
Girls,56.02,1,Kaityn Brown,Venus,54.88,122.47,68.04,122.47,312.98,Single-ply,SBD,F
Girls,56.02,2,Shyann Lewis,Venus,52.84,111.13,56.7,97.52,265.35,Single-ply,SBD,F
Girls,56.02,3,Malisa Cruz,Hillsboro,55.79,111.13,47.63,90.72,249.48,Single-ply,SBD,F
Girls,56.02,4,DeAndra McClennan,Dawson,54.66,92.99,52.16,92.99,238.14,Single-ply,SBD,F
Girls,56.02,5,Lucy Garcia,Blooming Grove,54.88,88.45,34.02,90.72,213.19,Single-ply,SBD,F
Girls,60.1,1,Isabella Weatherby,Alvarado,59.65,181.44,83.91,154.22,419.57,Single-ply,SBD,F
Girls,60.1,2,Lilly Perez,Palmer,59.87,124.74,70.31,140.61,335.66,Single-ply,SBD,F
Girls,60.1,3,Angelica Adame,Palmer,60.1,113.4,61.23,122.47,297.1,Single-ply,SBD,F
Girls,60.1,4,Brianna Evans,Red Oak,59.19,106.59,56.7,120.2,283.5,Single-ply,SBD,F
Girls,60.1,5,Angelica Sanchez,Venus,57.61,111.13,56.7,106.59,274.42,Single-ply,SBD,F
Girls,60.1,6,Nikki Turner,Corsicana Mildred,56.7,83.91,58.97,111.13,254.01,Single-ply,SBD,F
Girls,60.1,7,Evelyn Diaz,Palmer,57.61,97.52,56.7,97.52,251.74,Single-ply,SBD,F
Girls,60.1,8,Daniela Reyes,Buffalo,57.15,88.45,43.09,99.79,231.33,Single-ply,SBD,F
Girls,60.1,9,Samantha Lee,Wortham,60.1,86.18,40.82,97.52,224.53,Single-ply,SBD,F
Girls,60.1,10,Cameron Graves,Alvarado,58.74,86.18,45.36,88.45,219.99,Single-ply,SBD,F
Girls,60.1,11,Faith Wood,Blooming Grove,57.38,81.65,56.7,77.11,215.46,Single-ply,SBD,F
Girls,60.1,12,Kyanna Rodriguez,Corsicana Mildred,59.65,70.31,40.82,92.99,204.12,Single-ply,SBD,F
Girls,60.1,13,Spring Hogan,Wortham,58.06,72.57,36.29,90.72,199.58,Single-ply,SBD,F
Girls,60.1,14,Rocio Mendoza,Hillsboro,58.51,61.23,36.29,83.91,181.44,Single-ply,SBD,F
Girls,60.1,15,Keri Saldana,Dawson,57.61,61.23,36.29,79.38,176.9,Single-ply,SBD,F
Girls,60.1,DQ,Annabel Nodado,Red Oak,60.1,,,,,Single-ply,SBD,F
Girls,67.36,1,Raquel Balderas,Blooming Grove,63.28,129.27,83.91,142.88,356.07,Single-ply,SBD,F
Girls,67.36,2,Sheila Flores,Hillsboro,66.9,154.22,70.31,113.4,337.93,Single-ply,SBD,F
Girls,67.36,3,Kayla Gonzalez,Venus,65.77,142.88,52.16,131.54,326.59,Single-ply,SBD,F
Girls,67.36,4,Emalie Arnold,Alvarado,64.86,102.06,72.57,108.86,283.5,Single-ply,SBD,F
Girls,67.36,4,Alexis Payne,Palmer,62.37,111.13,65.77,108.86,285.76,Single-ply,SBD,F
Girls,67.36,5,Taylor Lack,Buffalo,61.23,104.33,56.7,120.2,281.23,Single-ply,SBD,F
Girls,67.36,6,Claire Barham,Blooming Grove,62.14,104.33,52.16,102.06,258.55,Single-ply,SBD,F
Girls,67.36,7,Callye Short,Blooming Grove,66.9,95.25,56.7,102.06,254.01,Single-ply,SBD,F
Girls,67.36,8,Callie Waller,Corsicana Mildred,64.86,86.18,47.63,99.79,233.6,Single-ply,SBD,F
Girls,67.36,9,Jessica Ramírez #1,Alvarado,66.68,74.84,58.97,83.91,217.72,Single-ply,SBD,F
Girls,67.36,10,Madi Shealy,Corsicana Mildred,62.37,77.11,40.82,79.38,197.31,Single-ply,SBD,F
Girls,67.36,11,Brycee Shepard,Corsicana Mildred,66.9,74.84,36.29,86.18,197.31,Single-ply,SBD,F
Girls,67.36,12,Audri Lopez,Palmer,63.5,77.11,38.56,79.38,195.04,Single-ply,SBD,F
Girls,67.36,13,Brianna Islas,Alvarado,66.45,61.23,34.02,58.97,154.22,Single-ply,SBD,F
Girls,67.36,DQ,Allie Cope,Corsicana Mildred,66,88.45,,,,Single-ply,SBD,F
Girls,67.36,DQ,Cheyenne Myers,Red Oak,66.68,,,,,Single-ply,SBD,F
Girls,75.07,1,Hannah Patton,Hillsboro,74.39,133.81,70.31,136.08,340.19,Single-ply,SBD,F
Girls,75.07,2,Indira Bonilla,Hillsboro,70.76,138.35,68.04,131.54,337.93,Single-ply,SBD,F
Girls,75.07,3,Sava Gagich,Alvarado,67.81,129.27,68.04,136.08,333.39,Single-ply,SBD,F
Girls,75.07,4,MaKayla McDade,Red Oak,70.08,120.2,58.97,147.42,326.59,Single-ply,SBD,F
Girls,75.07,5,Monserat Seranno,Hillsboro,74.39,136.08,65.77,113.4,315.25,Single-ply,SBD,F
Girls,75.07,6,Nayda Rodriguez,Venus,73.94,138.35,63.5,111.13,312.98,Single-ply,SBD,F
Girls,75.07,7,Abby Huitt,Corsicana Mildred,75.07,104.33,43.09,115.67,263.08,Single-ply,SBD,F
Girls,75.07,8,Brooklynn Thompson,Teague,73.48,102.06,49.9,108.86,260.82,Single-ply,SBD,F
Girls,75.07,9,Macy Haverstroh,Alvarado,72.8,97.52,40.82,113.4,251.74,Single-ply,SBD,F
Girls,75.07,10,Kayla Soto,Corsicana Mildred,70.31,79.38,38.56,102.06,219.99,Single-ply,SBD,F
Girls,75.07,11,Emma Laseter,Hubbard,70.99,81.65,40.82,86.18,208.65,Single-ply,SBD,F
Girls,75.07,12,Allyson Rea,Hillsboro,70.08,81.65,43.09,81.65,206.38,Single-ply,SBD,F
Girls,82.33,1,Lorena Mirafuentes,Blooming Grove,75.75,145.15,74.84,142.88,362.87,Single-ply,SBD,F
Girls,82.33,2,Natalie Lopez,Venus,77.11,145.15,68.04,122.47,335.66,Single-ply,SBD,F
Girls,82.33,3,Brittany Creagor,Corsicana Mildred,82.33,124.74,70.31,136.08,331.12,Single-ply,SBD,F
Girls,82.33,4,Lillie Izquierdo,Hillsboro,78.02,129.27,52.16,131.54,312.98,Single-ply,SBD,F
Girls,82.33,5,Alex Munster,Wortham,75.3,95.25,58.97,95.25,249.48,Single-ply,SBD,F
Girls,82.33,6,Faythe Hudson,Wortham,80.51,79.38,38.56,102.06,219.99,Single-ply,SBD,F
Girls,82.33,7,Summer Settlemeyer,Wortham,75.3,68.04,24.95,68.04,161.03,Single-ply,SBD,F
Girls,82.33,DQ,Chrissy Reimim,Corsicana Mildred,82.1,,,,,Single-ply,SBD,F
Girls,82.33,DQ,Radience Willis,Blooming Grove,80.29,133.81,,,,Single-ply,SBD,F
Girls,90.04,1,Bekah Parks,Teague,86.41,172.37,88.45,147.42,408.23,Single-ply,SBD,F
Girls,90.04,2,Jackie Yanez,Rice,85.5,79.38,58.97,136.08,274.42,Single-ply,SBD,F
Girls,100.02,1,Emily Crowder,Alvarado,99.34,131.54,74.84,129.27,335.66,Single-ply,SBD,F
Girls,100.02,2,Ta'Avyonne Felder,Wortham,90.26,140.61,49.9,142.88,333.39,Single-ply,SBD,F
Girls,100.02,3,Catarina Cassell,Rice,96.39,124.74,92.99,113.4,331.12,Single-ply,SBD,F
Girls,100.02,4,Stephanie Hawkins,Corsicana Mildred,97.98,108.86,68.04,120.2,297.1,Single-ply,SBD,F
Girls,100.02,5,Hannah Middleton,Corsicana Mildred,95.93,70.31,45.36,102.06,217.72,Single-ply,SBD,F
Girls,117.71,1,Halee McCaslin,Corsicana Mildred,107.5,174.63,86.18,147.42,408.23,Single-ply,SBD,F
Girls,117.71,2,Dorothy Henry,Hillsboro,103.42,142.88,79.38,129.27,351.53,Single-ply,SBD,F
Girls,117.71,3,Jaycee Brown,Alvarado,101.6,108.86,61.23,120.2,290.3,Single-ply,SBD,F
Girls,117.71,5,Kellie Blake,Maypearl,105.46,113.4,52.16,113.4,278.96,Single-ply,SBD,F
Girls,117.71,6,Monica Hernandez,Hillsboro,101.15,124.74,43.09,83.91,251.74,Single-ply,SBD,F
Girls,117.71,7,Alex Grizzle,Buffalo,102.51,83.91,52.16,92.99,229.06,Single-ply,SBD,F
Girls,117.71,8,Dezne Taylor,Alvarado,105.01,83.91,43.09,92.99,219.99,Single-ply,SBD,F
Girls,117.71+,1,Katrina Partain,Dawson,133.36,158.76,99.79,117.93,376.48,Single-ply,SBD,F
Girls,117.71+,2,Valerie Lee,Alvarado,131.09,108.86,63.5,79.38,251.74,Single-ply,SBD,F
