Name,Event,Equipment,Tested,Sex,WeightClassKg,Division,BirthDate,BodyweightKg,Country,Squat1Kg,Squat2Kg,Squat3Kg,Squat4Kg,Best3SquatKg,Bench1Kg,Bench2Kg,Bench3Kg,Bench4Kg,Best3BenchKg,Deadlift1Kg,Deadlift2Kg,Deadlift3Kg,Deadlift4Kg,Best3DeadliftKg,TotalKg,Place
Kristina Burko,B,Raw,Yes,F,52,J 20-23,1985-02-11,49.9,Estonia,,,,,,40,45,,,45,,,,,,45,1
Irina Ivashechkina,B,Raw,Yes,F,52,Open,1971-07-10,51.1,Russia,,,,,,37.5,40,42.5,,42.5,,,,,,42.5,1
Natalya Privalova,B,Raw,Yes,F,67.5,M 40-44,1966-04-30,67.3,Russia,,,,,,57.5,62.5,-65,,62.5,,,,,,62.5,1
Tatyana Potemkina,B,Raw,Yes,M,75,Open,1976-08-29,67.95,Russia,,,,,,62.5,-65,-65,,62.5,,,,,,62.5,1
Yuriy Radev,B,Raw,Yes,M,56,T 16-17,1991-06-04,54.7,Russia,,,,,,70,75,-80,,75,,,,,,75,1
Artur Shevchenko,B,Raw,Yes,M,67.5,T 16-17,1991-02-22,64.8,Russia,,,,,,70,-75,,,70,,,,,,70,1
Aleksey Nazarenko,B,Raw,Yes,M,67.5,T 18-19,1989-03-15,65.85,Russia,,,,,,140,145,150,,150,,,,,,,DD
Roman Konyuhov,B,Raw,Yes,M,67.5,J 20-23,1985-07-09,65.3,Russia,,,,,,60,70,-80,,70,,,,,,70,1
Aleksandr Gostev,B,Raw,Yes,M,67.5,Open,1981-06-20,64.55,Russia,,,,,,140,145,-150,,145,,,,,,145,1
Evgeniy Uskov,B,Raw,Yes,M,67.5,Open,1970-04-26,66.9,Russia,,,,,,115,-130,-130,,115,,,,,,115,1
Ruslan Shevchenko,B,Raw,Yes,M,75,T 16-17,1991-02-22,72.5,Russia,,,,,,80,85,-90,,85,,,,,,85,1
Nikolay Gik,B,Raw,Yes,M,75,T 18-19,1987-09-29,74.4,Russia,,,,,,-125,125,,,125,,,,,,125,1
Osei Edvard,B,Raw,Yes,M,75,Open,1981-07-20,75,Ghana,,,,,,100,110,-132.5,,110,,,,,,110,1
Dmitriy Ivashechkin,B,Raw,Yes,M,75,Open,1971-01-04,73.85,Russia,,,,,,-130,-130,-130,,,,,,,,,DQ
Evgeniy Kolcov,B,Raw,Yes,M,75,M 40-44,1967-01-18,72.6,Russia,,,,,,115,120,-125,,120,,,,,,120,1
Andrey Galayda,B,Raw,Yes,M,82.5,Open,1972-02-07,82,Russia,,,,,,170,177.5,-185,,177.5,,,,,,177.5,1
Dmitriy Lukyanov,B,Raw,Yes,M,82.5,Open,1982-09-28,82.4,Russia,,,,,,145,150,155,,155,,,,,,155,1
Konstantin Malcev,B,Raw,Yes,M,82.5,Open,1974-10-13,78.85,Russia,,,,,,-150,150,-160,,150,,,,,,150,1
Pavel Kokorin,B,Raw,Yes,M,82.5,Open,1980-09-14,82.5,Russia,,,,,,140,145,-150,,145,,,,,,145,1
Nikita Pahomov,B,Raw,Yes,M,90,T 16-17,1990-04-27,85.25,Russia,,,,,,140,-155,-155,,140,,,,,,140,1
Evgeniy Suvakin,B,Raw,Yes,M,90,J 20-23,1987-02-23,87.55,Russia,,,,,,-130,130,-137.5,,130,,,,,,130,1
Mihail Veber,B,Raw,Yes,M,90,Open,1971-07-29,85.3,Russia,,,,,,180,187.5,190,,190,,,,,,190,1
Sergey Puchkov,B,Raw,Yes,M,90,Open,1962-03-15,87.9,Russia,,,,,,160,,,,160,,,,,,160,1
Sergey Odnoshovin,B,Raw,Yes,M,90,Open,1970-12-01,89.25,Russia,,,,,,130,-137.5,-137.5,,130,,,,,,130,1
Sergey Puchkov,B,Raw,Yes,M,90,M 45-49,1962-03-15,87.9,Russia,,,,,,155,-160,160,,160,,,,,,160,1
Aleksandr Petrov,B,Raw,Yes,M,100,Open,1979-07-19,95.25,Russia,,,,,,155,162.5,165,,165,,,,,,165,1
Aleksandr Romanov,B,Raw,Yes,M,100,Open,1974-02-11,94.5,Russia,,,,,,162.5,-175,-175,,162.5,,,,,,162.5,1
Andrey Fedoseev,B,Raw,Yes,M,100,Open,1974-03-03,99.6,Russia,,,,,,152.5,-162.5,-162.5,,152.5,,,,,,152.5,1
Ankeli Emmanuel,B,Raw,Yes,M,100,Open,1982-12-08,96.75,Nigeria,,,,,,95,105,-110,,105,,,,,,105,1
Denis Zacepin,B,Raw,Yes,M,110,Open,1981-05-06,109.35,Russia,,,,,,160,-167.5,-167.5,,160,,,,,,160,1
Maksim Suhovienko,B,Raw,Yes,M,110,Open,1980-06-22,106,Russia,,,,,,-180,,,,,,,,,,,DQ
Sergey Harlamov,B,Raw,Yes,M,110,Open,1969-04-09,108.2,Russia,,,,,,-160,-167.5,-167.5,,,,,,,,,DQ
Igor Simanovskiy,B,Raw,Yes,M,110,M 40-44,1965-03-28,109.85,Russia,,,,,,170,180,-185,,180,,,,,,180,1
Sergey Leonov,B,Raw,Yes,M,110,M 40-44,1962-11-12,104.45,Russia,,,,,,120,130,-140,,130,,,,,,130,1
Aleksandr Yumatov,B,Raw,Yes,M,125,T 16-17,1989-10-11,123.95,Russia,,,,,,130,140,150,,150,,,,,,150,1
Sergey Lukyanov,B,Raw,Yes,M,125,Open,1973-05-27,115.4,Russia,,,,,,202.5,212.5,,,212.5,,,,,,212.5,1
Evgeniy Pavlov,B,Raw,Yes,M,140,Open,1976-09-06,130.45,Ukraine,,,,,,205,217.5,-230,,217.5,,,,,,,DD
Aleksandr Semenov,B,Raw,Yes,M,140,M 40-44,1966-08-21,130.4,Russia,,,,,,200,210,-220,,210,,,,,,210,1
Aleksey Lisogor,B,Raw,Yes,M,140+,J 20-23,1986-04-30,140.8,Ukraine,,,,,,160,170,180,,180,,,,,,180,1
Svetlana Voronova,B,Multi-ply,Yes,F,44,Open,1976-09-15,43.95,Estonia,,,,,,65,70,75,-77.5,75,,,,,,75,1
Kristina Esipova,B,Multi-ply,Yes,F,52,J 20-23,1984-12-27,50.45,Russia,,,,,,-50,50,-55,,50,,,,,,50,1
Anna Molina,B,Multi-ply,Yes,F,56,T 18-19,1988-04-15,55.95,Russia,,,,,,-57.5,57.5,-65,,57.5,,,,,,57.5,1
Anna Ogorodnikova,B,Multi-ply,Yes,F,56,J 20-23,1984-08-22,54.05,Russia,,,,,,65,-70,,,65,,,,,,65,1
Liliya Venglovskaya,B,Multi-ply,Yes,F,60,Open,1979-02-23,59.7,Transnistria,,,,,,75,82.5,-95,,82.5,,,,,,82.5,1
Natalya Privalova,B,Multi-ply,Yes,F,67.5,M 40-44,1966-04-30,67.3,Russia,,,,,,-57.5,57.5,-62.5,,57.5,,,,,,57.5,1
Aleksandr Petuhov,B,Multi-ply,Yes,M,52,T 13-15,1994-04-01,44.5,Russia,,,,,,60,65,-67.5,,65,,,,,,65,1
Vadim Dyukarev,B,Multi-ply,Yes,M,60,M 45-49,1959-07-22,58.8,Russia,,,,,,-110,110,-115,,110,,,,,,110,1
Denis Tichinin,B,Multi-ply,Yes,M,67.5,T 13-15,1991-12-07,67.05,Russia,,,,,,117.5,-125,-125,,117.5,,,,,,117.5,1
Anatoliy Zyabrin,B,Multi-ply,Yes,M,67.5,T 18-19,1987-12-07,66.65,Russia,,,,,,80,90,-100,,90,,,,,,90,1
Dmitriy Matosyan,B,Multi-ply,Yes,M,67.5,Open,1976-04-02,66.15,Russia,,,,,,150,162.5,-167.5,,162.5,,,,,,162.5,1
Vladislav Lopatin,B,Multi-ply,Yes,M,75,T 16-17,1990-05-14,71.2,Russia,,,,,,155,165,-180,,165,,,,,,165,1
Ilya Chudin,B,Multi-ply,Yes,M,75,T 16-17,1990-06-26,71.3,Russia,,,,,,120,-125,125,,125,,,,,,125,2
Nikolay Gik,B,Multi-ply,Yes,M,75,T 18-19,1987-09-29,74.4,Russia,,,,,,142.5,150,-157.5,,150,,,,,,150,1
Evgeniy Klyuev,B,Multi-ply,Yes,M,75,T 18-19,1988-01-12,73,Russia,,,,,,-140,140,-157.5,,140,,,,,,140,2
Dmitriy Vorobev,B,Multi-ply,Yes,M,75,J 20-23,1985-04-26,71.5,Russia,,,,,,150,157.5,160,,160,,,,,,160,1
Vladimir Belishev,B,Multi-ply,Yes,M,75,J 20-23,1984-01-22,70.75,Russia,,,,,,-140,-140,-140,,,,,,,,,DQ
Vladimir Lapinin,B,Multi-ply,Yes,M,75,Open,1970-06-27,74.95,Russia,,,,,,-180,180,187.5,,187.5,,,,,,187.5,1
Viktor Mistratov,B,Multi-ply,Yes,M,75,Open,1981-02-10,74.05,Russia,,,,,,-180,185,-190,,185,,,,,,185,2
Evgeniy Rusakov,B,Multi-ply,Yes,M,75,Open,1980-01-28,75,Russia,,,,,,160,-180,180,,180,,,,,,180,3
Dmitriy Ivashechkin,B,Multi-ply,Yes,M,75,Open,1971-01-04,73.5,Russia,,,,,,107.5,122.5,137.5,,137.5,,,,,,137.5,4
Maksim Udovichenko,B,Multi-ply,Yes,M,82.5,T 16-17,1990-09-16,82.1,Russia,,,,,,-140,-140,140,,140,,,,,,140,1
Mihail Nemchinov,B,Multi-ply,Yes,M,82.5,T 18-19,1987-09-13,80.1,Russia,,,,,,160,170,-175,-175,170,,,,,,170,1
Evgeniy Semenihin,B,Multi-ply,Yes,M,82.5,J 20-23,1984-05-19,79.6,Russia,,,,,,130,140,-150,,140,,,,,,140,1
Vitaliy Klincov,B,Multi-ply,Yes,M,82.5,J 20-23,1986-05-10,75.75,Russia,,,,,,115,125,-130,,125,,,,,,125,2
Jeduard Melyaev,B,Multi-ply,Yes,M,82.5,Open,1970-08-18,80.6,Russia,,,,,,175,182.5,187.5,,187.5,,,,,,187.5,1
Vladislav Tyutyushikov,B,Multi-ply,Yes,M,82.5,Open,1977-01-23,77.3,Russia,,,,,,-150,150,-160,,150,,,,,,150,2
Dmitriy Plyasov,B,Multi-ply,Yes,M,82.5,Open,1975-04-08,82.25,Russia,,,,,,-170,-175,-175,,,,,,,,,DQ
Boris Parshukov,B,Multi-ply,Yes,M,90,T 16-17,1991-05-29,86.1,Russia,,,,,,130,140,-150,,140,,,,,,140,1
Denis Lyalin,B,Multi-ply,Yes,M,90,T 18-19,1987-10-07,87.45,Russia,,,,,,130,-140,-140,,130,,,,,,130,1
Marat Abdullin,B,Multi-ply,Yes,M,90,J 20-23,1985-07-21,83.5,Russia,,,,,,-210,220,-230,,220,,,,,,220,1
Aleksandr Kvasnikov,B,Multi-ply,Yes,M,90,J 20-23,1987-04-07,89.6,Russia,,,,,,160,-175,175,,175,,,,,,175,2
Mihail Veber,B,Multi-ply,Yes,M,90,Open,1971-07-29,85.3,Russia,,,,,,-215,215,232.5,,232.5,,,,,,232.5,1
Ayrat Fayzullin,B,Multi-ply,Yes,M,90,Open,1972-03-05,87.6,Russia,,,,,,180,-197.5,-197.5,,180,,,,,,180,2
Evgeniy Uvarov,B,Multi-ply,Yes,M,90,Open,1977-02-03,85.9,Russia,,,,,,160,170,-180,,170,,,,,,170,3
Namig Dzhafarov,B,Multi-ply,Yes,M,90,Open,1976-08-27,82.6,Azerbaijan,,,,,,-205,-205,-205,,,,,,,,,DQ
Sergey Puchkov,B,Multi-ply,Yes,M,90,M 45-49,1962-03-15,87.9,Russia,,,,,,180,185,,,185,,,,,,185,1
Vladimir Muran,B,Multi-ply,Yes,M,90,M 50-54,1957-05-19,86.8,Russia,,,,,,150,-160,-160,,150,,,,,,150,1
Vladislav Nikolaev,B,Multi-ply,Yes,M,100,Open,1977-01-04,98.6,Russia,,,,,,180,192.5,-205,,192.5,,,,,,192.5,1
Oleg Holodov,B,Multi-ply,Yes,M,100,M 45-49,1961-11-27,95.1,Russia,,,,,,150,175,-190,,175,,,,,,175,1
Artem Litvinenko,B,Multi-ply,Yes,M,110,T 16-17,1990-10-12,106.6,Transnistria,,,,,,155,165,170,,170,,,,,,170,1
Aleksey Vencov,B,Multi-ply,Yes,M,110,Open,1981-04-22,107.2,Russia,,,,,,-202.5,202.5,-220,,202.5,,,,,,202.5,1
Oleg Zaycev,B,Multi-ply,Yes,M,110,Open,1969-04-19,110,Russia,,,,,,155,160,-180,,160,,,,,,160,2
Ivan Rish,B,Multi-ply,Yes,M,125,Open,1981-04-29,123.95,Russia,,,,,,210,230,-250,,230,,,,,,,DD
Evgeniy Pavlov,B,Multi-ply,Yes,M,140,Open,1976-09-06,130.45,Ukraine,,,,,,250,-275,280,,280,,,,,,,DD
Vladimir Sushhak,B,Multi-ply,Yes,M,140,Open,1972-09-25,134.2,Russia,,,,,,265,275,280,,280,,,,,,280,2
Aleksandr Semenov,B,Multi-ply,Yes,M,140,Open,1966-08-21,130.4,Russia,,,,,,-200,,,,,,,,,,,DQ
Aleksandr Semenov,B,Multi-ply,Yes,M,140,M 40-44,1966-08-21,130.4,Russia,,,,,,-200,,,,,,,,,,,DQ
Aleksey Lisogor,B,Multi-ply,Yes,M,140+,J 20-23,1986-04-30,140.8,Ukraine,,,,,,190,200,-210,,200,,,,,,200,1
Svetlana Voronova,SBD,Multi-ply,Yes,F,44,Open,1976-09-15,43.9,Estonia,80,90,-100,,90,65,70,-75,,70,-85,85,95,,95,255,1
Irina Ivashechkina,SBD,Multi-ply,Yes,F,52,Open,1971-07-10,51.1,Russia,,,,,,-37.5,,,,,,,,,,,DQ
Svetlana Zubareva,SBD,Multi-ply,Yes,F,56,Open,1982-10-22,56,Russia,125,132.5,-137.5,,132.5,52.5,55,60,,60,120,-127.5,127.5,,127.5,320,1
Marina Tuz,SBD,Multi-ply,Yes,F,56,Open,1971-03-14,54.35,Russia,100,110,-125,,110,60,65,-67.5,,65,100,110,115,,115,290,2
Rena Alieva,SBD,Multi-ply,Yes,F,56,Open,1977-12-22,54.9,Azerbaijan,-115,115,-130,,115,50,-55,-55,,50,100,115,-127.5,,115,280,3
Liliya Venglovskaya,SBD,Multi-ply,Yes,F,60,Open,1979-02-23,58.3,Transnistria,145,157.5,-170,,157.5,-90,-90,-90,,,,,,,,,DQ
Yuliya Umerenkova,SBD,Multi-ply,Yes,F,67.5,Open,1980-12-09,66,Russia,180,190,-200.5,,190,80,-87.5,87.5,,87.5,160,-170.5,-170.5,,160,437.5,1
Nadezhda Sereda,SBD,Multi-ply,Yes,F,67.5,Open,1973-09-02,63.95,Russia,125,130,-135,,130,70,75,-77.5,,75,115,120,-122.5,,120,325,2
Natalya Privalova,SBD,Multi-ply,Yes,F,67.5,M 40-44,1966-04-30,67.3,Russia,,,,,,-60,,,,,,,,,,,DQ
Aleksandr Petuhov,SBD,Multi-ply,Yes,M,52,T 13-15,1994-04-01,44,Russia,127.5,-137.5,-150,,127.5,55,62.5,-67.5,,62.5,112.5,115,-117.5,,115,305,1
Soslan Dzagoev,SBD,Multi-ply,Yes,M,60,J 20-23,1986-12-25,58,Russia,180,-206,206,,206,-95,95,-100,,95,160,-200,,,160,461,1
Igor Yakovlev,SBD,Multi-ply,Yes,M,75,T 16-17,1990-03-04,74.2,Russia,200,-210,215,,215,130,-135,-135,,130,200,210,215,,215,560,1
Vitaliy Maklakov,SBD,Multi-ply,Yes,M,75,T 16-17,1989-11-22,74.85,Russia,-220,220,-240,,220,110,120,-125,,120,180,200,-210,,200,540,2
Vladislav Lopatin,SBD,Multi-ply,Yes,M,75,T 16-17,1990-05-14,73.1,Russia,-180,180,-187.5,,180,155,160,165,,165,180,-187.5,-192.5,,180,525,3
Aleksandr Malanin,SBD,Multi-ply,Yes,M,75,T 16-17,1989-11-17,73.2,Russia,160,180,200,,200,90,100,,,100,160,170,,,170,470,4
Igor Sergun,SBD,Multi-ply,Yes,M,75,T 18-19,1988-01-27,73.25,Russia,-220,220,-240,,220,125,-135,-135,,125,215,225,-230,,225,570,1
Sergey Kalinin,SBD,Multi-ply,Yes,M,75,T 18-19,1989-07-20,72.2,Russia,200,210,-217.5,,210,130,137.5,-145,,137.5,190,200,-210,,200,547.5,2
Vladimir Konkin,SBD,Multi-ply,Yes,M,75,T 18-19,1989-06-21,72.2,Russia,200,-215,-215,,200,120,127.5,-132.5,,127.5,180,192.5,-205,,192.5,520,3
Vitaliy Klincov,SBD,Multi-ply,Yes,M,75,J 20-23,1986-05-10,72.05,Russia,-190,190,-200,,190,-115,115,-120,,115,140,155,-165,,155,460,1
Sergey Ayvazov,SBD,Multi-ply,Yes,M,75,Open,1977-07-19,74.65,Russia,300,320,340,,340,170,180,-185,,180,270,-290,-290,,270,790,1
Aleksey Korchagin,SBD,Multi-ply,Yes,M,75,Open,1978-09-10,74.2,Russia,220,240,-250,,240,160,170,177.5,,177.5,220,240,-250,,240,657.5,2
Evgeniy Semenihin,SBD,Multi-ply,Yes,M,82.5,J 20-23,1984-05-19,80,Russia,180,-190,-190,,180,132.5,140,-142.5,,140,192.5,197.5,-202.5,,197.5,517.5,1
Andrey Mochalov,SBD,Multi-ply,Yes,M,82.5,Open,1974-06-26,81.25,Russia,-270,305,-322.5,,305,140,150,155,,155,270,280,,,280,740,1
Aleksandr Polfuntikov,SBD,Multi-ply,Yes,M,82.5,Open,1982-12-06,81.35,Russia,280,-300,-305,,280,165,175,-180,,175,245,-255,,,245,700,2
Jernest Gazaryan,SBD,Multi-ply,Yes,M,82.5,Open,1979-09-27,81.2,Russia,230,250,-260,,250,-160,-160,-160,,,,,,,,,DQ
Evgeniy Panferov,SBD,Multi-ply,Yes,M,90,T 16-17,1991-03-31,88.65,Russia,220,240,-260,,240,130,140,-145,,140,190,-210,,,190,570,1
Aleksandr Kvasnikov,SBD,Multi-ply,Yes,M,90,J 20-23,1987-04-07,90,Russia,-215,-215,215,,215,-177.5,-177.5,-177.5,,,,,,,,,DQ
Igor Umerenkov,SBD,Multi-ply,Yes,M,90,Open,1980-09-13,86.1,Russia,300,320,330.5,,330.5,170,180,182.5,,182.5,270,277.5,,,277.5,790,1
Rinat Zaripov,SBD,Multi-ply,Yes,M,90,Open,1970-08-10,89.65,Ukraine,280,300,320,,320,190,-200,200,,200,-280,-280,-290,,,,DQ
Maksim Gluhov,SBD,Multi-ply,Yes,M,90,M 45-49,1960-09-28,86.7,Russia,175,185,200,,200,95,-105,-105,,95,190,210,-220,,210,505,1
Aleksey Samburov,SBD,Multi-ply,Yes,M,100,Open,1975-09-23,97.9,Russia,240,260,280,,280,150,160,170,,170,205,220,235,,235,685,1
Artem Litvinenko,SBD,Multi-ply,Yes,M,110,T 16-17,1990-10-12,104.9,Transnistria,240,250.5,-265,,250.5,-150,150,-165,,150,220,233,-240,,233,633.5,1
Feliks Koltakov,SBD,Multi-ply,Yes,M,125,Open,1974-03-02,121.6,Ukraine,300,330,340,,340,190,-200,200,,200,280,-305,-305,,280,820,1
Vladimir Sushhak,SBD,Multi-ply,Yes,M,140,Open,1972-09-25,134.3,Russia,400,-412.5,412.5,,412.5,-265,270,-280,,270,300,320,-337.5,,320,1002.5,1
Olga Nagornaya,SBD,Raw,Yes,F,52,Open,1982-07-24,52,Russia,70,75,80,,80,35,-40,40,,40,100,110,117.5,,117.5,237.5,1
Valeriya Levochkina,SBD,Raw,Yes,F,60,Open,1964-04-27,59.15,Russia,90,100,-107.5,,100,60,65,70,,70,120,130,145,,145,315,1
Liliya Venglovskaya,SBD,Raw,Yes,F,60,Open,1979-02-23,59,Transnistria,75,85,95,,95,55,-65,-65,,55,110,130,-150,,130,280,2
Anna Malisheva,SBD,Raw,Yes,F,67.5,J 20-23,1987-02-11,60.85,Russia,-90,97.5,107.5,,107.5,50,55,57.5,,57.5,130,140,-145,,140,305,1
Svetlana Pimenova,SBD,Raw,Yes,F,67.5,Open,1983-07-03,60.25,Russia,100,110,115,,115,50,55,-57.5,,55,110,-120,-120,,110,280,1
Nadezhda Sereda,SBD,Raw,Yes,F,67.5,Open,1973-09-02,62.45,Russia,-80,80,90,,90,50,55,57.5,,57.5,95,105,110,,110,257.5,2
Sergey Timohin,SBD,Raw,Yes,M,60,T 13-15,1991-10-06,57.85,Russia,-90,90,100,,100,55,60,65,,65,110,120,130,,130,295,1
Dmitriy Chernishev,SBD,Raw,Yes,M,60,T 13-15,1992-12-01,57.8,Russia,80,85,90,,90,55,60,-65,,60,125,130,-140,,130,280,2
Sergey Chicherin,SBD,Raw,Yes,M,67.5,T 18-19,1988-07-16,67.2,Russia,-50,,,,,,,,,,,,,,,,DQ
Ilya Shadrin,SBD,Raw,Yes,M,67.5,M 40-44,1962-09-02,65.85,Belarus,-100,105,110,,110,85,90,,,90,140,150,160,,160,360,1
Ilya Chudin,SBD,Raw,Yes,M,75,T 16-17,1990-06-26,70.75,Russia,130,-140,140,,140,90,97.5,-102.5,,97.5,100,,,,100,337.5,1
Andrey Lyutik,SBD,Raw,Yes,M,75,Open,1982-07-06,75,Ukraine,190,200,210,,210,135,145,-152.5,,145,220,235,-245,,235,590,1
Artur Niazyan,SBD,Raw,Yes,M,75,Open,1977-09-27,74.4,Russia,170,180,-185,,180,130,145,,,145,200,215,-230,,215,540,2
Denis Emelyanov,SBD,Raw,Yes,M,82.5,J 20-23,1987-05-31,77.05,Russia,165,175,182.5,,182.5,90,100,-105,,100,200,-215,-215,,200,482.5,1
Andrey Mochalov,SBD,Raw,Yes,M,82.5,Open,1974-06-26,81.7,Russia,220,230,-245,,230,110,120,122.5,,122.5,270,280,-285,,280,632.5,1
Dmitriy Lukyanov,SBD,Raw,Yes,M,82.5,Open,1982-09-28,82,Russia,180,200,207.5,,207.5,140,150,155,,155,230,240,-247.5,,240,602.5,2
Aleksandr Parkin,SBD,Raw,Yes,M,82.5,M 45-49,1962-05-22,80.15,Russia,-130,130,140,,140,90,95,100,,100,150,160,180,,180,420,1
Nikolay Zhukov,SBD,Raw,Yes,M,90,Open,1978-10-16,86.75,Russia,245,255,260,,260,155,167.5,172.5,,172.5,250,270,275,,275,707.5,1
Rinat Zaripov,SBD,Raw,Yes,M,90,Open,1970-08-10,89.45,Ukraine,200,220,240,,240,150,165,172.5,,172.5,230,-260,-275,,230,642.5,2
Sergey Lisenok,SBD,Raw,Yes,M,90,Open,1971-07-13,88.3,Belarus,-170,170,,,170,105,110,-112.5,,110,220,230,,,230,510,3
Aleksandr Cirkov,SBD,Raw,Yes,M,100,Open,1971-03-05,98.2,Russia,250,260,-270,,260,150,160,-165,,160,270,-290,,,270,690,1
Vitaliy Shumilov,SBD,Raw,Yes,M,100,Open,1970-06-04,97.7,Russia,190,202.5,212.5,,212.5,160,165,170,,170,240,257.5,270,,270,652.5,2
Vladimir Dernyaev,SBD,Raw,Yes,M,100,Open,1976-04-18,96.4,Ukraine,-190,190,210,,210,150,-160,170,,170,220,245,255,,255,635,3
Andrey Fedoseev,SBD,Raw,Yes,M,100,Open,1974-03-03,98.8,Russia,190,200,205,,205,155,160,-165,,160,220,235,-245,,235,600,4
Artem Prisyazhniy,SBD,Raw,Yes,M,110,Open,1981-05-30,102.3,Russia,170,180,,,180,135,,,,135,210,225,,,225,540,1
Aleksandr Yumatov,SBD,Raw,Yes,M,125,T 16-17,1989-10-11,123.4,Russia,-210,-210,-210,,,,,,,,,,,,,,DQ
Sergey Lukyanov,SBD,Raw,Yes,M,125,Open,1973-05-27,116.5,Russia,240,255,265,,265,190,205,215,,215,240,260,270,,270,750,1
Mikhail Chekushkin,SBD,Raw,Yes,M,125,Open,1960-03-17,125,Transnistria,290,,,,290,172.5,,,,172.5,250,,,,250,712.5,2
Nikolay Krasotkin,SBD,Raw,Yes,M,125,Open,1981-12-07,115.7,Russia,200,210,220,,220,120,130,135,,135,240,250,260,,260,615,3
Aleksey Teryaev,SBD,Raw,Yes,M,125,Open,1980-11-16,117.65,Russia,220,230,235,,235,130,140,145,,145,220,230,235,,235,615,4
Aleksandr Teterin,SBD,Raw,Yes,M,125,Open,1974-11-15,118.7,Russia,190,-205,,,190,130,-137.5,137.5,,137.5,270,-277.5,,,270,597.5,5
Mikhail Chekushkin,SBD,Raw,Yes,M,125,M 45-49,1960-03-17,125,Transnistria,260,280,290,,290,160,-170,172.5,,172.5,250,-280.5,-280.5,,250,712.5,1
Vladimir Sushhak,SBD,Raw,Yes,M,140,Open,1972-09-25,134.1,Russia,280,310,322.5,,322.5,180,187.5,-192.5,,187.5,280,315,,,315,825,1
Anastasiya Sergienko,B,Multi-ply,No,F,48,T 18-19,1987-09-14,44.95,Russia,,,,,,-72.5,-72.5,-72.5,,,,,,,,,DQ
Irina Mazur,B,Multi-ply,No,F,52,T 16-17,1990-08-18,51.6,Russia,,,,,,55,-65,-65,,55,,,,,,55,1
Margarita Gass,B,Multi-ply,No,F,52,T 18-19,1988-02-11,52,Russia,,,,,,65,-72.5,-72.5,,65,,,,,,65,1
Marina Zotova,B,Multi-ply,No,F,52,J 20-23,1983-09-23,49.8,Russia,,,,,,90,-95,-95,,90,,,,,,90,1
Lyudmila Grishechkina,B,Multi-ply,No,F,56,T 18-19,1989-06-13,53.7,Russia,,,,,,62.5,67.5,-70,,67.5,,,,,,67.5,1
Marina Gileva,B,Multi-ply,No,F,56,Open,1973-07-02,55.65,Russia,,,,,,-70,70,-77.5,,70,,,,,,70,2
Natalya Lovtsova,B,Multi-ply,No,F,60,J 20-23,,59.6,Russia,,,,,,75,77.5,-82.5,,77.5,,,,,,77.5,1
Inna Shmakova,B,Multi-ply,No,F,60,J 20-23,,58.9,Russia,,,,,,-65,-65,-65,,,,,,,,,DQ
Marina Bemova,B,Multi-ply,No,F,60,Open,1981-12-29,60,Russia,,,,,,115,122.5,-127.5,,122.5,,,,,,122.5,1
Anna Goryunova,B,Multi-ply,No,F,60,Open,1982-07-04,57.5,Russia,,,,,,-57.5,-57.5,-57.5,,,,,,,,,DQ
Anastasiya Rakcheeva,B,Multi-ply,No,F,67.5,Open,1971-01-19,67.1,Russia,,,,,,135,-142.5,142.5,-145.5,142.5,,,,,,142.5,1
Viktoriya Sheludko,B,Multi-ply,No,F,75,Open,,74.3,Russia,,,,,,120,130,-145,,130,,,,,,130,1
Yuliya Raputa,B,Multi-ply,No,F,75,Open,,74.6,Russia,,,,,,115,117.5,-120,,117.5,,,,,,117.5,2
Svetlana Sinacheva,B,Multi-ply,No,F,75,Open,,73.4,Russia,,,,,,-105,105,-107.5,,105,,,,,,105,3
Svetlana Sinacheva,B,Multi-ply,No,F,75,M 40-44,,73.4,Russia,,,,,,-105,105,-107.5,,105,,,,,,105,1
Alexei Gornyi,B,Multi-ply,No,M,52,T 13-15,,51.15,Ukraine,,,,,,60,67.5,-72.5,,67.5,,,,,,67.5,1
Imam Abdiev,B,Multi-ply,No,M,56,J 20-23,,56,Russia,,,,,,127.5,-135,-135,,127.5,,,,,,127.5,1
Valentin Cheblakov,B,Multi-ply,No,M,60,M 55-59,,60,Russia,,,,,,75,85,92.5,,92.5,,,,,,92.5,1
Amil Atakishev,B,Multi-ply,No,M,67.5,T 16-17,,66.8,Azerbaijan,,,,,,115,125,130,131,130,,,,,,130,1
Konstantin Zhigulin,B,Multi-ply,No,M,67.5,T 18-19,,67,Russia,,,,,,-135,135,145,,145,,,,,,145,1
Mikhail Kolesnikov,B,Multi-ply,No,M,67.5,J 20-23,,67.15,Russia,,,,,,150,155,165,-175.5,165,,,,,,165,1
Andrei Kniga,B,Multi-ply,No,M,67.5,J 20-23,,67.05,Russia,,,,,,130,-140,-145,,130,,,,,,130,2
Mikhail Speranskiy,B,Multi-ply,No,M,67.5,Open,,65.7,Russia,,,,,,-200,200,-211.5,,200,,,,,,200,1
Niyazi Gasanov,B,Multi-ply,No,M,67.5,Open,,66.55,Azerbaijan,,,,,,-165,165,170,,170,,,,,,170,2
Alexei Platonov,B,Multi-ply,No,M,67.5,Open,,62.25,Russia,,,,,,-140,140,145,,145,,,,,,145,3
Leonid Sorokin,B,Multi-ply,No,M,67.5,M 40-44,,67,Ukraine,,,,,,110,120,-127.5,,120,,,,,,120,1
Sergei Kim,B,Multi-ply,No,M,67.5,M 50-54,,66.7,Russia,,,,,,165,-170,-170,,165,,,,,,165,1
Vladimir Zhidkov,B,Multi-ply,No,M,67.5,M 50-54,,65.55,Russia,,,,,,110,117.5,-120,,117.5,,,,,,117.5,2
Sergei Titov,B,Multi-ply,No,M,75,T 16-17,,73.15,Russia,,,,,,-130,130,-145,,130,,,,,,130,1
Anatoly Fedotov,B,Multi-ply,No,M,75,T 18-19,,73.6,Russia,,,,,,-160,-165,-165,,,,,,,,,DQ
Sergei Galushko,B,Multi-ply,No,M,75,T 18-19,,74.45,Russia,,,,,,-155,-155,-155,,,,,,,,,DQ
Alexander Nekipelov,B,Multi-ply,No,M,75,J 20-23,,74,Russia,,,,,,205,,,,205,,,,,,205,1
Alexei Semikolennykh,B,Multi-ply,No,M,75,J 20-23,,72.7,Russia,,,,,,160,-170,-170,,160,,,,,,160,2
Evgeny Zlobin,B,Multi-ply,No,M,75,J 20-23,,72.75,Russia,,,,,,160,-165,-165,,160,,,,,,160,3
Ilya Kokorev,B,Multi-ply,No,M,75,Open,,74.8,Russia,,,,,,220,-225,-227.5,,220,,,,,,220,1
Alexander Kashirtsev,B,Multi-ply,No,M,75,Open,,74.05,Russia,,,,,,190,195,205,,205,,,,,,205,2
Sarhan Aliev,B,Multi-ply,No,M,75,Open,,75,Azerbaijan,,,,,,-190,190,-197.5,,190,,,,,,190,3
Georgy Avdonin,B,Multi-ply,No,M,75,Open,,74.95,Russia,,,,,,187.5,-192.5,-192.5,,187.5,,,,,,187.5,4
Oleg Bykov,B,Multi-ply,No,M,75,Open,,75,Russia,,,,,,157.5,170,-187.5,,170,,,,,,170,5
Rustam Musaev,B,Multi-ply,No,M,75,Open,,70.35,Azerbaijan,,,,,,-140,-150,150,,150,,,,,,150,6
Albert Kupriyanov,B,Multi-ply,No,M,75,Open,,74.5,Russia,,,,,,-175,-175,-175,,,,,,,,,DQ
Alexander Tatarkin,B,Multi-ply,No,M,75,M 50-54,,74.6,Russia,,,,,,160,170,175,,175,,,,,,175,1
Alexei Loshenkov,B,Multi-ply,No,M,75,M 55-59,,73.95,Russia,,,,,,-120,120,130,,130,,,,,,130,1
Dmitriy Markelov,B,Multi-ply,No,M,82.5,T 18-19,,77.2,Russia,,,,,,130,-150,-150,,130,,,,,,130,1
Mikhail Kargapolov,B,Multi-ply,No,M,82.5,J 20-23,,81.9,Russia,,,,,,-205,-205,207.5,,207.5,,,,,,207.5,1
Vladimir Upolovnikov,B,Multi-ply,No,M,82.5,J 20-23,,78.25,Russia,,,,,,-185,185,192.5,,192.5,,,,,,192.5,2
Georgy Yakimenkov,B,Multi-ply,No,M,82.5,J 20-23,,81.45,Russia,,,,,,182.5,-192.5,,,182.5,,,,,,182.5,3
Andrei Dyatlov,B,Multi-ply,No,M,82.5,J 20-23,,81.7,Ukraine,,,,,,172.5,-185,-185,,172.5,,,,,,172.5,4
Stanislav Kuznetsov,B,Multi-ply,No,M,82.5,J 20-23,,78.9,Russia,,,,,,170,-180,-180,,170,,,,,,170,5
Igor Sofronov,B,Multi-ply,No,M,82.5,J 20-23,,81.8,Russia,,,,,,-170,-170,-170,,,,,,,,,DQ
Evgeniy Nechaev,B,Multi-ply,No,M,82.5,Open,,82.45,Russia,,,,,,260,-275,,,260,,,,,,260,1
Sergei Baumer,B,Multi-ply,No,M,82.5,Open,,82.45,Estonia,,,,,,200,230,-240,,230,,,,,,230,2
Nikolai Sanin,B,Multi-ply,No,M,82.5,Open,,82.45,Ukraine,,,,,,200,215,-220,,215,,,,,,215,3
Alexander Illarionov,B,Multi-ply,No,M,82.5,Open,,78.95,Russia,,,,,,202.5,-210,-212.5,,202.5,,,,,,202.5,4
Alexander Metelev,B,Multi-ply,No,M,82.5,Open,,81.45,Russia,,,,,,190,-202.5,-202.5,,190,,,,,,190,5
Andrei Bogatkov,B,Multi-ply,No,M,82.5,Open,,81.9,Russia,,,,,,187.5,-202.5,-202.5,,187.5,,,,,,187.5,6
Andrei Starodubtsev,B,Multi-ply,No,M,82.5,Open,,82,Russia,,,,,,180,-185,-185,,180,,,,,,180,7
Andrei Pobatenko,B,Multi-ply,No,M,82.5,Open,,81.45,Russia,,,,,,-170,170,-180,,170,,,,,,170,8
Vyacheslav Yakushov,B,Multi-ply,No,M,82.5,Open,,79.75,Russia,,,,,,-105,,,,,,,,,,,DQ
Anatoly Totskiy,B,Multi-ply,No,M,82.5,Open,,81.5,Russia,,,,,,-170,-170,,,,,,,,,,DQ
Yuri Petryakov,B,Multi-ply,No,M,82.5,M 40-44,,82.3,Russia,,,,,,180,190,-202.5,,190,,,,,,190,1
Vitaly Baykin,B,Multi-ply,No,M,82.5,M 45-49,,82.35,Russia,,,,,,160,-172.5,-172.5,,160,,,,,,160,1
Vyacheslav Stankevich,B,Multi-ply,No,M,82.5,M 55-59,,80.75,Russia,,,,,,170,-180,-180,,170,,,,,,170,1
Yuriy Chepets,B,Multi-ply,No,M,82.5,M 60-64,,77.9,Russia,,,,,,166,175,-182.5,,175,,,,,,175,1
Vyacheslav Yakushev,B,Multi-ply,No,M,82.5,M 65-69,,79.75,Russia,,,,,,105,113,115,,115,,,,,,115,1
Alexander Romanov,B,Multi-ply,No,M,90,T 18-19,,86.9,Russia,,,,,,190,195,-205,,195,,,,,,195,1
Pavel Pluzhnikov,B,Multi-ply,No,M,90,T 18-19,,90,Russia,,,,,,-192.5,-192.5,-192.5,,,,,,,,,DQ
Pavel Yevtushenko,B,Multi-ply,No,M,90,J 20-23,,87.5,Russia,,,,,,220,230,-240,,230,,,,,,230,1
Denis Chernishov,B,Multi-ply,No,M,90,J 20-23,,90,Russia,,,,,,-185,185,-192.5,,185,,,,,,185,2
Vitaly Chernev,B,Multi-ply,No,M,90,J 20-23,,86.55,Russia,,,,,,-220,-220,-220,,,,,,,,,DQ
Konstantin Pribitkov,B,Multi-ply,No,M,90,J 20-23,,90,Russia,,,,,,-180,-192.5,-192.5,,,,,,,,,DQ
Vladislav Miroshnikov,B,Multi-ply,No,M,90,Open,,88.65,Ukraine,,,,,,-245,-245,245,,245,,,,,,245,1
Valery Kurochkin,B,Multi-ply,No,M,90,Open,,88.9,Russia,,,,,,225,-232.5,232.5,,232.5,,,,,,232.5,2
Dzhabir Ibragimov,B,Multi-ply,No,M,90,Open,,88.55,Azerbaijan,,,,,,215,225,230,,230,,,,,,230,3
Dmitry Bemov,B,Multi-ply,No,M,90,Open,,89.1,Russia,,,,,,215,225,230,,230,,,,,,230,4
Pavel Fedulov,B,Multi-ply,No,M,90,Open,,86.5,Russia,,,,,,-220,220,-240,,220,,,,,,220,5
Sergei Puzanskiy,B,Multi-ply,No,M,90,Open,,88.95,Russia,,,,,,217.5,-235,-235,,217.5,,,,,,217.5,6
Alexei Sidyakin,B,Multi-ply,No,M,90,Open,,88.2,Russia,,,,,,200,-217.5,-217.5,,200,,,,,,200,7
Denis Ruchkin,B,Multi-ply,No,M,90,Open,,85.8,Russia,,,,,,195,-205,-217.5,,195,,,,,,195,8
Yuri Bizin,B,Multi-ply,No,M,90,Open,,88.7,Russia,,,,,,192.5,-205,-205,,192.5,,,,,,192.5,9
Aleksander Bulatov,B,Multi-ply,No,M,90,Open,,89.4,Russia,,,,,,192.5,-200,,,192.5,,,,,,192.5,10
Dmitry Sorokin,B,Multi-ply,No,M,90,Open,,88.55,Russia,,,,,,-180,-180,-190,,,,,,,,,DQ
Boris Zhernovnikov,B,Multi-ply,No,M,90,M 40-44,,88.75,Russia,,,,,,190,-217.5,-220,,190,,,,,,190,1
Valery Akentyev,B,Multi-ply,No,M,90,M 45-49,,89.2,Russia,,,,,,190,-217.5,-217.5,,190,,,,,,190,1
Aleksander Zavyalov,B,Multi-ply,No,M,90,M 50-54,,90,Russia,,,,,,170,-175,-180,,170,,,,,,170,1
Sergei Bogoderov,B,Multi-ply,No,M,90,M 50-54,,84.5,Russia,,,,,,105,110,115,,115,,,,,,115,2
Valentin Grakov,B,Multi-ply,No,M,90,M 55-59,,87.65,Russia,,,,,,182.5,-187.5,-192.5,,182.5,,,,,,182.5,1
Vladimir Malyshev,B,Multi-ply,No,M,90,M 70-74,,82.85,Russia,,,,,,132.5,140,145,,145,,,,,,145,1
Yuri Khandzhyan,B,Multi-ply,No,M,100,T 13-15,,99.6,Russia,,,,,,100,150,-160,,150,,,,,,150,1
Eduard Rondalainen,B,Multi-ply,No,M,100,J 20-23,,97.65,Estonia,,,,,,160,167.5,177.5,,177.5,,,,,,177.5,1
Denis Holkin,B,Multi-ply,No,M,100,J 20-23,,99.7,Russia,,,,,,150,165,172.5,,172.5,,,,,,172.5,2
Igor Kushin,B,Multi-ply,No,M,100,Open,,99.35,Russia,,,,,,260,275,282.5,-300.5,282.5,,,,,,282.5,1
Konstantin Otavin,B,Multi-ply,No,M,100,Open,,98.5,Russia,,,,,,280,-290,-292.5,,280,,,,,,280,2
Vitaly Petukhov,B,Multi-ply,No,M,100,Open,,99.35,Russia,,,,,,240,252.5,272.5,,272.5,,,,,,272.5,3
Roman Ampilogov,B,Multi-ply,No,M,100,Open,,98.95,Russia,,,,,,270,-280,-280,,270,,,,,,270,4
Sergei Gromov,B,Multi-ply,No,M,100,Open,,100,Russia,,,,,,265,,,,265,,,,,,265,5
Yuri Solovyev,B,Multi-ply,No,M,100,Open,,98.3,Russia,,,,,,255,262.5,-270,,262.5,,,,,,262.5,6
Andrei Barannikov,B,Multi-ply,No,M,100,Open,,98.3,Russia,,,,,,240,255,-260,,255,,,,,,255,7
Alexander Kolesnikov,B,Multi-ply,No,M,100,Open,,95.75,Russia,,,,,,-250,250,-270,,250,,,,,,250,8
Sergei Polutin,B,Multi-ply,No,M,100,Open,,99.4,Ukraine,,,,,,250,-260,-260,,250,,,,,,250,9
Valery Simagin,B,Multi-ply,No,M,100,Open,,98.55,Russia,,,,,,220,230,240,,240,,,,,,240,10
Mikhail Royanov,B,Multi-ply,No,M,100,Open,,96.75,Russia,,,,,,-230,230,-237.5,,230,,,,,,230,11
Andrei Lukinykh,B,Multi-ply,No,M,100,Open,,97.95,Russia,,,,,,-220,230,-250,,230,,,,,,230,12
Maxim Sinechkin,B,Multi-ply,No,M,100,Open,,97.6,Russia,,,,,,220,-250,-250,,220,,,,,,220,13
Kirill Valeev,B,Multi-ply,No,M,100,Open,,93.65,Russia,,,,,,-205,205,212.5,,212.5,,,,,,212.5,14
Alexei Gorbunenko,B,Multi-ply,No,M,100,Open,,98.05,Russia,,,,,,210,-230,-230,,210,,,,,,210,15
Roman Zalyubovskiy,B,Multi-ply,No,M,100,Open,,97.1,Russia,,,,,,195,202.5,205,,205,,,,,,205,16
Eduard Maksimov,B,Multi-ply,No,M,100,Open,,97.85,Russia,,,,,,195,-202.5,202.5,,202.5,,,,,,202.5,17
Sergei Chazov,B,Multi-ply,No,M,100,Open,,96.6,Russia,,,,,,170,-180,-202.5,,170,,,,,,170,18
Sergei Tachanov,B,Multi-ply,No,M,100,Open,,96.85,Russia,,,,,,-235,-235,-240,,,,,,,,,DQ
Igor Chistyakov,B,Multi-ply,No,M,100,Open,,97.25,Russia,,,,,,-230,-230,-230,,,,,,,,,DQ
Mikhail Fedulov,B,Multi-ply,No,M,100,Open,,99.65,Russia,,,,,,-202.5,-202.5,-202.5,,,,,,,,,DQ
Sergei Gromov,B,Multi-ply,No,M,100,M 40-44,,100,Russia,,,,,,252.5,260,265,-270,265,,,,,,265,1
Sergei Belikov,B,Multi-ply,No,M,100,M 40-44,,99.2,Russia,,,,,,-250,-252.5,252.5,,252.5,,,,,,252.5,2
Vladimir Tolmachev,B,Multi-ply,No,M,100,M 40-44,,95.7,Russia,,,,,,135,140,-150,,140,,,,,,140,3
Alexandr Krupin,B,Multi-ply,No,M,100,M 50-54,,98.3,Russia,,,,,,175,182.5,185,,185,,,,,,185,1
Oleg Tokarev,B,Multi-ply,No,M,100,M 50-54,,99.05,Russia,,,,,,165,175,-182.5,,175,,,,,,175,2
Vyacheslav Pyatakhin,B,Multi-ply,No,M,100,M 55-59,,90.85,Russia,,,,,,155,162.5,170,,170,,,,,,170,1
Alexander Andrianov,B,Multi-ply,No,M,100,M 60-64,,92.95,Russia,,,,,,145,155,162.5,,162.5,,,,,,162.5,1
Evgeniy Khudoleev,B,Multi-ply,No,M,100,M 60-64,,93.15,Russia,,,,,,150,155,-162.5,,155,,,,,,155,2
Dmitry Krymskiy,B,Multi-ply,No,M,110,T 16-17,,108.9,Russia,,,,,,180,187.5,190,-195,190,,,,,,190,1
Yuri Pestichev,B,Multi-ply,No,M,110,T 18-19,,107.65,Russia,,,,,,190,203.5,210,-212.5,210,,,,,,210,1
Alexander Kubata,B,Multi-ply,No,M,110,J 20-23,,110,Russia,,,,,,-260,-260,260,,260,,,,,,260,1
Ivan Smyslov,B,Multi-ply,No,M,110,J 20-23,,107.1,Russia,,,,,,230,242.5,-252.5,,242.5,,,,,,242.5,2
Mikhail Brilin,B,Multi-ply,No,M,110,J 20-23,,107,Russia,,,,,,230,240,-250,,240,,,,,,240,3
Evgeny Lunev,B,Multi-ply,No,M,110,J 20-23,,104,Russia,,,,,,185,-200,210,,210,,,,,,210,4
Ivan Maslov,B,Multi-ply,No,M,110,J 20-23,,102.2,Russia,,,,,,-210,-210,-210,,,,,,,,,DQ
Alexei Neklyudov,B,Multi-ply,No,M,110,Open,,108.9,Russia,,,,,,-340,-340,340,-350,340,,,,,,340,1
Dmitry Gorbachev,B,Multi-ply,No,M,110,Open,,107.65,Russia,,,,,,-310,-310,310,,310,,,,,,310,2
Vladimir Poletaev,B,Multi-ply,No,M,110,Open,,106.05,Russia,,,,,,-255,-260,260,,260,,,,,,260,3
Nikolai Pishmintsev,B,Multi-ply,No,M,110,Open,,109.55,Russia,,,,,,240,255,-262.5,,255,,,,,,255,4
Rinat Kabirov,B,Multi-ply,No,M,110,Open,,109.8,Russia,,,,,,240,247.5,252.5,,252.5,,,,,,252.5,5
Alexei Kostylev,B,Multi-ply,No,M,110,Open,,107.6,Russia,,,,,,250,-260,-260,,250,,,,,,250,6
Dmitry Shelukhin,B,Multi-ply,No,M,110,Open,,110,Russia,,,,,,230,240,-250,,240,,,,,,240,7
Ivan Maslov,B,Multi-ply,No,M,110,Open,,102.25,Russia,,,,,,200,210,,,210,,,,,,210,8
Andrei Balakin,B,Multi-ply,No,M,110,Open,,104.95,Russia,,,,,,-210,210,-240,,210,,,,,,210,9
Alexei Tereshchenko,B,Multi-ply,No,M,110,Open,,105.2,Russia,,,,,,210,-220,-225,,210,,,,,,210,10
Alexander Lebedev,B,Multi-ply,No,M,110,Open,,108.6,Russia,,,,,,210,-220,-220,,210,,,,,,210,11
Sergei Galkin,B,Multi-ply,No,M,110,Open,,109.05,Russia,,,,,,210,-220,-220,,210,,,,,,210,12
Alexander Shanin,B,Multi-ply,No,M,110,Open,,109.2,Russia,,,,,,195,-210,-210,,195,,,,,,195,13
Maxim Sukhovenko,B,Multi-ply,No,M,110,Open,,106,Russia,,,,,,180,-200,-200,,180,,,,,,180,14
Vitaly Pidenko,B,Multi-ply,No,M,110,Open,,103.6,Russia,,,,,,-210,-210,,,,,,,,,,DQ
Vladimir Surkov,B,Multi-ply,No,M,110,Open,,104.5,Russia,,,,,,-245,-255,-255,,,,,,,,,DQ
Roman Kuslap,B,Multi-ply,No,M,110,Open,,107.85,Russia,,,,,,-195,-200,-210,,,,,,,,,DQ
Ruslan Bodryi,B,Multi-ply,No,M,110,Open,,108.65,Russia,,,,,,-270,-270,-270,,,,,,,,,DQ
Konstantin Maltsev,B,Multi-ply,No,M,110,Open,,109.35,Russia,,,,,,-230,-240,-240,,,,,,,,,DQ
Alexei Neklyudov,B,Multi-ply,No,M,110,M 40-44,,108.9,Russia,,,,,,-340,-340,340,-350,340,,,,,,340,1
Viktor Pozdnyakov,B,Multi-ply,No,M,110,M 45-49,,106.2,Russia,,,,,,200,210,217.5,,217.5,,,,,,217.5,1
Pavel Yagovkin,B,Multi-ply,No,M,110,M 45-49,,108,Russia,,,,,,202.5,210,217.5,-230.5,217.5,,,,,,217.5,2
Alexander Larin,B,Multi-ply,No,M,110,M 55-59,,110,Russia,,,,,,160,170,180,-190.5,180,,,,,,180,1
Valentin Savelyev,B,Multi-ply,No,M,110,M 55-59,,103.45,Russia,,,,,,-130,-130,130,,130,,,,,,130,2
Viktor Ishchenko,B,Multi-ply,No,M,110,M 60-64,,103.05,Russia,,,,,,160,-185,-185,,160,,,,,,160,1
Ilya Voronin,B,Multi-ply,No,M,125,T 16-17,,123.2,Russia,,,,,,160,-165,165,-167.5,165,,,,,,165,1
Alexander Korshkov,B,Multi-ply,No,M,125,J 20-23,,123,Russia,,,,,,270,275,280,-290,280,,,,,,280,1
Vasily Matsur,B,Multi-ply,No,M,125,J 20-23,,115.55,Russia,,,,,,250,270,-275,,270,,,,,,270,2
Bogdan Kozak,B,Multi-ply,No,M,125,J 20-23,,119.95,Russia,,,,,,250,-260,,,250,,,,,,250,3
Vladimir Kravtsov,B,Multi-ply,No,M,125,Open,,124.9,Russia,,,,,,330,-362.5,-362.5,,330,,,,,,330,1
Ivan Kurpishev,B,Multi-ply,No,M,125,Open,,115,Russia,,,,,,-285,300,-317.5,,300,,,,,,300,2
Dmitry Permyakov,B,Multi-ply,No,M,125,Open,,120.9,Russia,,,,,,-280,280,-285,,280,,,,,,280,3
Alexei Yeginov,B,Multi-ply,No,M,125,Open,,118.45,Russia,,,,,,-270,270,-282.5,,270,,,,,,270,4
Vadim Kiryushkin,B,Multi-ply,No,M,125,Open,,117.1,Russia,,,,,,250,260,-265,,260,,,,,,260,5
Sergei Molchanov,B,Multi-ply,No,M,125,Open,,118,Russia,,,,,,250,260,-280,,260,,,,,,260,6
Pavel Kucherov,B,Multi-ply,No,M,125,Open,,117.5,Russia,,,,,,-250,250,-260,,250,,,,,,250,7
Alexander Seregin,B,Multi-ply,No,M,125,Open,,118.2,Russia,,,,,,-225,225,235,,235,,,,,,235,8
Maxim Shevelev,B,Multi-ply,No,M,125,Open,,125,Russia,,,,,,-230,230,-250,,230,,,,,,230,9
Dmitry Shishlyannikov,B,Multi-ply,No,M,125,Open,,113.8,Russia,,,,,,220,-230,-230,,220,,,,,,220,10
Vadim Bratanov,B,Multi-ply,No,M,125,Open,,121.2,Russia,,,,,,220,-250,-250,,220,,,,,,220,11
Denis Makeev,B,Multi-ply,No,M,125,Open,,120.2,Russia,,,,,,210,-220,-220,,210,,,,,,210,12
Ivan Kulchickiy,B,Multi-ply,No,M,125,Open,,115.45,Russia,,,,,,-270,-280,,,,,,,,,,DQ
Vasily Matsur,B,Multi-ply,No,M,125,Open,,115.55,Russia,,,,,,-220,,,,,,,,,,,DQ
Lev Chernykh,B,Multi-ply,No,M,125,Open,,120.7,Russia,,,,,,-250,-250,-250,,,,,,,,,DQ
Lev Chernykh,B,Multi-ply,No,M,125,M 40-44,,121.95,Russia,,,,,,220,-250,-255,,220,,,,,,220,1
Yuri Lukyanchik,B,Multi-ply,No,M,125,M 40-44,,121.3,Russia,,,,,,150,162.5,167.5,,167.5,,,,,,167.5,2
Alexander Zemerov,B,Multi-ply,No,M,125,M 50-54,,110.6,Russia,,,,,,180,190,200,,200,,,,,,200,1
Marko Traks,B,Multi-ply,No,M,140,T 18-19,,126.7,Estonia,,,,,,160,-220,-220,,160,,,,,,160,1
Vladimir Maksimov,B,Multi-ply,No,M,140,Open,,130.1,Russia,,,,,,350,360,365.5,-370,365.5,,,,,,365,1
Nikolai Koltakov,B,Multi-ply,No,M,140,Open,,125.05,Ukraine,,,,,,275,285,-295,,285,,,,,,285,2
Yuri Smirnov,B,Multi-ply,No,M,140,Open,,131.95,Russia,,,,,,260,-277.5,-277.5,,260,,,,,,260,3
Igor Sankin,B,Multi-ply,No,M,140,Open,,129.9,Russia,,,,,,235,-245,-250,,235,,,,,,235,4
Vladimir Maksimov,B,Multi-ply,No,M,140,M 40-44,,130.1,Russia,,,,,,350,360,365.5,-370,365.5,,,,,,365,1
Andrei Barnikov,B,Multi-ply,No,M,140,M 40-44,,132.3,Russia,,,,,,200,-220,-225,,200,,,,,,200,2
Georgy Lopatskiy,B,Multi-ply,No,M,140,M 45-49,,126.75,Russia,,,,,,230,245,-260,,245,,,,,,245,1
Kirill Sarychev,B,Single-ply,No,M,140+,T 18-19,,150,Russia,,,,,,255,280,285,-290,285,,,,,,285,1
Timur Ahmedov,B,Multi-ply,No,M,140+,J 20-23,,151,Russia,,,,,,185,-210,-210,,185,,,,,,185,1
Vladimir Grad,B,Multi-ply,No,M,140+,Open,,147.6,Russia,,,,,,295,-315,-315,,295,,,,,,295,1
Evgeny Grigoryev,B,Multi-ply,No,M,140+,Open,,183,Russia,,,,,,-182.5,,,,,,,,,,,DQ
Anna Akhmedova,SBD,Multi-ply,No,F,44,J 20-23,,43.5,Russia,-85,-92.5,-92.5,,,,,,,,,,,,,,DQ
Margarita Gass,SBD,Multi-ply,No,F,52,T 18-19,,51.7,Russia,120,-130,130,,130,-70,70,-75,,70,90,95,-100,,95,295,1
Lyudmila Grishechkina,SBD,Multi-ply,No,F,52,T 18-19,,51.4,Russia,85,-95,95,,95,62.5,-67.5,-67.5,,62.5,100,110,-115,,110,267.5,2
Marina Zotova,SBD,Multi-ply,No,F,52,J 20-23,,49.9,Russia,130,-140,140,150,140,-90,90,95,,95,140,155,162.5,-170,162.5,397.5,1
Tatyana Kolganova,SBD,Multi-ply,No,F,52,Open,,50.85,Russia,-97.5,110,115,,115,47.5,50,55,,55,110,125,135,,135,305,1
Mariya Poteshkina,SBD,Multi-ply,No,F,56,J 20-23,,55.75,Russia,130,-145,-145,,130,45,47.5,55,,55,110,125,-132.5,,125,310,1
Marina Medvedeva,SBD,Multi-ply,No,F,56,Open,,55.7,Russia,170,190,202.5,210.5,202.5,100,105,115,,115,170,185,-200,,185,502.5,1
Elizaveta Trofimets,SBD,Multi-ply,No,F,60,T 13-15,,57.7,Russia,-95,100,110,,110,45,-50,50,,50,100,110,-120,,110,270,1
Lidiya Tomchina,SBD,Multi-ply,No,F,60,J 20-23,,58.65,Russia,-160,160,-170,,160,55,65,-70,,65,120,132.5,140,,140,365,1
Marina Bemova,SBD,Multi-ply,No,F,60,Open,,59.8,Russia,200,210,215,,215,105,115,120,,120,170,-180,-180,,170,505,1
Irina Petrovich,SBD,Multi-ply,No,F,67.5,J 20-23,,66.1,Belarus,135,145,152.5,,152.5,90,100,105,,105,170,185,192.5,,192.5,450,1
Elena Povolotskaya,SBD,Multi-ply,No,F,75,Open,,73.1,Russia,-240,250,260,,260,-110,110,120,,120,210,220,-225,,220,600,1
Svetlana Sheremenko,SBD,Multi-ply,No,F,75,M 45-49,,71.8,Ukraine,140,-155,162.5,,162.5,70,-77.5,80,,80,140,-155,155,,155,397.5,1
Alexei Gornyi,SBD,Multi-ply,No,M,52,T 13-15,,51.8,Ukraine,105,120,125,,125,62.5,65,-67.5,,65,105,115,-122.5,,115,305,1
Yegor Pavlyuk,SBD,Multi-ply,No,M,52,T 13-15,,48.45,Russia,-132.5,132.5,142.5,150,142.5,40,-47.5,-47.5,,40,85,95,102.5,,102.5,285,2
Alexander Vasilyev,SBD,Multi-ply,No,M,52,J 20-23,,50.3,Russia,115,122.5,130,,130,70,-75,-75,,70,120,132.5,-142.5,,132.5,332.5,1
Pavel Kostikov,SBD,Multi-ply,No,M,60,T 18-19,,60,Russia,-190,190,,,190,-95,100,105,,105,160,170,180.5,,180.5,475,1
Alexander Pavlyuchenko,SBD,Multi-ply,No,M,60,Open,,58.2,Russia,185,-200,200,,200,117.5,-120,120,,120,200,-210,-210,,200,520,1
Valentin Cheblakov,SBD,Multi-ply,No,M,60,M 55-59,,60,Russia,110,115,120,,120,-80,80,85,,85,135,140,145,,145,350,1
Vadim Shmelev,SBD,Multi-ply,No,M,67.5,T 16-17,,66.25,Russia,180,195,-200,,195,100,107.5,-110,,107.5,170,193,-195,,193,495,1
Konstantin Zhigulin,SBD,Multi-ply,No,M,67.5,T 18-19,,67.5,Russia,140,150,,,150,110,135,,,135,130,150,,,150,435,1
Alexander Darbityan,SBD,Multi-ply,No,M,67.5,T 18-19,,67.1,Russia,-200,-200,-200,,,-145,-145,145,,145,190,-205,,,190,,DQ
Vladimir Petyanov,SBD,Multi-ply,No,M,67.5,J 20-23,,66.2,Russia,250,265,275,,275,120,130,-137.5,,130,205,-215,215,,215,620,1
Mikhail Kolesnikov,SBD,Multi-ply,No,M,67.5,J 20-23,,67.25,Russia,230,-242.5,-242.5,,230,150,-155,-155,,150,210,230,-250,,230,610,2
Mikhail Speranskiy,SBD,Multi-ply,No,M,67.5,Open,,65.95,Russia,290,305,-315,,305,205,-210,-215,,205,240,-250,-250,,240,750,1
Amil Atakishev,SBD,Multi-ply,No,M,67.5,Open,,67.5,Azerbaijan,205,217.5,227.5,,227.5,127.5,130,132.5,,132.5,205,220,-227.5,,220,580,2
Rustam Musaev,SBD,Multi-ply,No,M,67.5,Open,,67.5,Azerbaijan,215,225,232.5,,232.5,-135,-135,135,,135,210,-220,-220,,210,577.5,3
Vladimir Zhidkov,SBD,Multi-ply,No,M,67.5,M 50-54,,65.35,Russia,160,165,172.5,,172.5,105,110,-115,,110,195,-205,207.5,,207.5,490,1
Andrei Ilyin,SBD,Multi-ply,No,M,75,T 16-17,,72.6,Russia,185,-200,205,,205,92.5,100,105,,105,190,-205,-205,,190,500,1
Igor Klochek,SBD,Multi-ply,No,M,75,T 16-17,,73.15,Russia,175,185,-190,,185,-115,-115,-115,,,,,,,,,DQ
Pavel Bogatyrev,SBD,Multi-ply,No,M,75,T 18-19,,74.9,Russia,260,270,280,,280,167.5,172.5,,,172.5,230,240,-255.5,,240,692.5,1
Sergei Melkonyan,SBD,Multi-ply,No,M,75,T 18-19,,69.85,Russia,200,-210,210,,210,100,110,-120,,110,180,-195,-195,,180,500,2
Alexander Nekipelov,SBD,Multi-ply,No,M,75,J 20-23,,73.55,Russia,-300,300,332.5,,332.5,190,205,-210,,205,250,-272.5,-272.5,,250,787.5,1
Sergei Yanshin,SBD,Multi-ply,No,M,75,J 20-23,,73.9,Russia,-265,265,280,,280,155,165,170,,170,210,220,-225,,220,670,2
German Petyanov,SBD,Multi-ply,No,M,75,J 20-23,,70.7,Russia,255,270,285,,285,120,130,135,,135,200,210,217.5,,217.5,637.5,3
Mikhail Ushakov,SBD,Multi-ply,No,M,75,J 20-23,,75,Russia,220,235,245,,245,110,-117.5,117.5,,117.5,-220,222.5,-237.5,,222.5,585,4
Anatoly Glazunov,SBD,Multi-ply,No,M,75,Open,,73.4,Russia,250,270,290,,290,170,180,-190,,180,220,230,-240,,230,700,1
Emin Galib Ogly Mamedov,SBD,Multi-ply,No,M,75,Open,,75,Azerbaijan,260,277.5,-290,,277.5,140,147.5,-152.5,,147.5,235,250,265,,265,690,2
Pavel Kulkov,SBD,Multi-ply,No,M,75,Open,,70.1,Russia,280,-300,-320,,280,150,160,-165,,160,-270,-270,,,,,DQ
Ilya Kokorev,SBD,Multi-ply,No,M,75,Open,,74.8,Russia,300,315,-325,,315,215,225,-232.5,,225,-270,-270,-270,,,,DQ
Vyacheslav Gorodulin,SBD,Multi-ply,No,M,75,M 50-54,,73.85,Ukraine,220,232.5,240,,240,140,150,155,,155,230,240,,,240,635,1
Alexei Sedelkin,SBD,Multi-ply,No,M,75,M 55-59,,74.9,Russia,200,212.5,220,,220,107.5,110,-115,,110,200,210,-220,,210,540,1
Yuriy Chepets,SBD,Multi-ply,No,M,75,M 60-64,,75,Russia,215,225,235,245,235,165,180,-188,,180,170,187.5,200,,200,615,1
Andrei Gladun,SBD,Multi-ply,No,M,82.5,T 16-17,,79.65,Ukraine,250,280,300,,300,145,155,160,,160,230,250,-255,,250,710,1
Sergei Titov,SBD,Multi-ply,No,M,82.5,T 16-17,,76.7,Russia,210,230,250,,250,130,140,-150,,140,200,-220,-220,,200,590,2
Vitaly Leonnyuk,SBD,Multi-ply,No,M,82.5,T 16-17,,77.8,Russia,160,170,-190,,170,90,100,105,,105,-150,150,,,150,425,3
Dmitry Mayorov,SBD,Multi-ply,No,M,82.5,T 18-19,,80.95,Russia,295,315,,,315,175,190,,,190,220,235,245,,245,750,1
Dmitriy Markelov,SBD,Multi-ply,No,M,82.5,T 18-19,,79.8,Russia,110,,,,110,140,-160,-160,,140,110,,,,110,360,2
Georgy Yakimenkov,SBD,Multi-ply,No,M,82.5,J 20-23,,82.4,Russia,260,275,285,,285,180,-190,-192.5,,180,250,265,-270,,265,730,1
Andrei Dyatlov,SBD,Multi-ply,No,M,82.5,J 20-23,,80.55,Ukraine,255,270,282.5,,282.5,170,180,185,,185,225,240,245,,245,712.5,2
Sergei Blinov,SBD,Multi-ply,No,M,82.5,J 20-23,,78.3,Russia,260,270,280,,280,170,-177.5,177.5,,177.5,230,240,-250,,240,697.5,3
Alexander Bazhin,SBD,Multi-ply,No,M,82.5,J 20-23,,82.25,Russia,-280,292.5,-305,,292.5,140,155,160,,160,240,-255,-255,,240,692.5,4
Vladimir Grigoryev,SBD,Multi-ply,No,M,82.5,J 20-23,,80.9,Russia,240,260,270,,270,150,160,-170,,160,220,230,240,,240,670,5
Nikolai Maslov,SBD,Multi-ply,No,M,82.5,J 20-23,,80.15,Russia,240,260,-265,,260,160,-170,-180,,160,230,-240,-240,,230,650,6
Andrei Stepanov,SBD,Multi-ply,No,M,82.5,J 20-23,,80.35,Russia,270,-280,-290,,270,160,-175,-180,,160,220,-230,-230,,220,650,7
Gennady Bogdanov,SBD,Multi-ply,No,M,82.5,Open,,82.1,Russia,270,290,305,,305,190,200,-215,,200,290,300,,,300,805,1
Konstantin Konstantinov,SBD,Multi-ply,No,M,82.5,Open,,79,Russia,270,-290,300,,300,160,170,175,,175,240,255,260,,260,735,2
Pavel Mitrofanov,SBD,Multi-ply,No,M,82.5,Open,,81.5,Russia,230,255,-265,,255,160,-172.5,172.5,,172.5,210,225,235,,235,662.5,3
Sergei Baumer,SBD,Multi-ply,No,M,82.5,Open,,82.4,Estonia,250,,,,250,-240,-240,-240,,,,,,,,,DQ
Anatoly Cherednichenko,SBD,Multi-ply,No,M,82.5,M 50-54,,81.15,Ukraine,190,-200,-215,,190,-100,110,120,,120,180,200,215,,215,525,1
Valery Glazunov,SBD,Multi-ply,No,M,82.5,M 55-59,,80.9,Russia,250,275,290,300.5,290,175,180,-185.5,,180,200,220,230,,230,700,1
Vladimir Tkachenko,SBD,Multi-ply,No,M,82.5,M 60-64,,81.75,Russia,235,245,255,,255,140,-147.5,-147.5,,140,225,235,240,,240,635,1
Vyacheslav Yakushev,SBD,Multi-ply,No,M,82.5,M 65-69,,80.05,Russia,165,175,180,,180,100,107.5,112.5,,112.5,175,180,185,,185,477.5,1
Alexander Romanov,SBD,Multi-ply,No,M,90,T 18-19,,85.85,Russia,320,-355,-355,,320,190,-205,-205,,190,-250,-250,250,,250,760,1
Konstantin Pribitkov,SBD,Multi-ply,No,M,90,J 20-23,,89,Russia,-270,270,-290,,270,-190,-190,190,,190,222.5,235,250,,250,710,1
Dmitry Osipov,SBD,Multi-ply,No,M,90,J 20-23,,82.75,Russia,-275,275,,,275,150,160,,,160,210,225,,,225,660,2
Alexei Lukyanenko,SBD,Multi-ply,No,M,90,J 20-23,,87.15,Russia,200,220,-230,,220,150,-160,,,150,210,220,-230,,220,590,3
Denis Fitkevich,SBD,Multi-ply,No,M,90,Open,,86.85,Ukraine,370,-385,-385,,370,-250,250,-260,,250,270,285,300,,300,920,1
Nikolai Solovyev,SBD,Multi-ply,No,M,90,Open,,90,Russia,300,320,330,,330,210,220,-225,,220,280,300,-310,,300,850,2
Yefim Karasik,SBD,Multi-ply,No,M,90,Open,,88.7,Russia,290,305,,,305,190,-205,-205,,190,270,302.5,-322.5,,302.5,797.5,3
Sergei Kuznetsov,SBD,Multi-ply,No,M,90,Open,,89.1,Russia,260,-275,280,,280,-160,160,170,,170,250,-260,-260,,250,700,4
Maxim Piskunov,SBD,Multi-ply,No,M,90,Open,,89.25,Russia,310,330,-350,,330,-215,-215,-215,,,,,,,,,DQ
Stepan Novikov,SBD,Multi-ply,No,M,90,Open,,89.45,Russia,-370,,,,,,,,,,,,,,,,DQ
Alexandr Drosin,SBD,Multi-ply,No,M,90,Open,,89.7,Russia,-330,-340,-340,,,-215,,,,,,,,,,,DQ
Yefim Karasik,SBD,Multi-ply,No,M,90,M 40-44,,88.7,Russia,290,305,,,305,190,-205,-205,,190,270,302.5,-322.5,,302.5,797.5,1
Valery Nochvin,SBD,Multi-ply,No,M,90,M 45-49,,88.9,Russia,255,265,275,,275,210,220,,,220,230,-250,250,,250,745,1
Vyacheslav Stankevich,SBD,Multi-ply,No,M,90,M 55-59,,82.65,Russia,200,220,240,,240,-170,170,180,,180,230,240,245,,245,665,1
Valentin Grakov,SBD,Multi-ply,No,M,90,M 55-59,,87.1,Russia,225,235,250,,250,-182.5,182.5,,,182.5,215,225,-235,,225,657.5,2
Mikhail Tsatsulin,SBD,Multi-ply,No,M,100,T 18-19,,90.55,Russia,320,-340,340,,340,200,-215,,,200,-310,310,-340,,310,850,1
Pavel Tyurin,SBD,Multi-ply,No,M,100,T 18-19,,90.6,Russia,-250,250,-270,,250,150,-170,-170,,150,210,225,235,,235,635,2
Alexander Borshchev,SBD,Multi-ply,No,M,100,J 20-23,,94.6,Russia,-300,320,340,,340,200,210,-215,,210,280,-300,,,280,830,1
Aleksey Rogov,SBD,Multi-ply,No,M,100,J 20-23,,94.6,Russia,235,255,275,,275,180,190,-197.5,,190,245,-305,-305,,245,710,2
Pavel Petrenko,SBD,Multi-ply,No,M,100,J 20-23,,93.05,Russia,195,205,-210,,205,145,150,155,,155,200,-210,,,200,560,3
Vladimir Venglovschi,SBD,Multi-ply,No,M,100,Open,,99.75,Transnistria,-350,-360,360,,360,215,240,-250,,240,322.5,-350,-350,,322.5,922.5,1
Alexander Baskarev,SBD,Multi-ply,No,M,100,Open,,99.2,Russia,315,330,340,,340,200,-210,220,,220,310,-330,-330,,310,870,2
Sergei Zaitsev,SBD,Multi-ply,No,M,100,Open,,97.1,Russia,280,290,302.5,,302.5,210,215,220,,220,280,290,300,,300,822.5,3
Mikhail Berezhnov,SBD,Multi-ply,No,M,100,Open,,98.95,Russia,260,280,,,280,180,187.5,192.5,,192.5,-280,280,297.5,,297.5,770,4
Evgeny Budaev,SBD,Multi-ply,No,M,100,Open,,95.7,Russia,270,-290,290,,290,130,-140,140,,140,250,270,280,,280,710,5
Ivan Tolpegin,SBD,Multi-ply,No,M,100,Open,,94.9,Russia,230,260,-285,,260,150,160,170,,170,200,-230,250,,250,680,6
Alexander Bulatov,SBD,Multi-ply,No,M,100,Open,,91.65,Russia,280,-300,-300,,280,190,-195,195,,195,-270,-270,-270,,,,DQ
Kirill Valeev,SBD,Multi-ply,No,M,100,Open,,93.35,Russia,-340,-340,-340,,,,,,,,,,,,,,DQ
Anatoly Smirnov,SBD,Multi-ply,No,M,100,Open,,98.9,Russia,-285,-305,-315,,,,,,,,,,,,,,DQ
Viktor Babenko,SBD,Multi-ply,No,M,100,M 40-44,,98.25,Ukraine,270,-300,-300,,270,190,-200,-200,,190,250,-270,270,,270,730,1
Sergei Bershadskiy,SBD,Multi-ply,No,M,100,M 40-44,,99.3,Ukraine,220,240,-255,,240,140,155,165,,165,220,235,245,,245,650,2
Oleg Tokarev,SBD,Multi-ply,No,M,100,M 50-54,,97.9,Russia,235,260,275,,275,170,180,185,,185,235,255,-270,,255,715,1
Eduard Kazaryan,SBD,Multi-ply,No,M,100,M 50-54,,95.65,Russia,200,-220,220,,220,130,140,,,140,180,190,-200,,190,550,2
Mikhail Bobkov,SBD,Multi-ply,No,M,100,M 55-59,,92.75,Russia,240,270,290,,290,90,100,,,100,210,230,,,230,620,1
Evgeniy Khudoleev,SBD,Multi-ply,No,M,100,M 60-64,,92.8,Russia,200,220,-240,,220,145,155,-165,,155,200,222.5,230,,230,605,1
Alexander Andrianov,SBD,Multi-ply,No,M,100,M 60-64,,92.65,Russia,200,-220,-235,,200,140,150,,,150,180,200,220,,220,570,2
Alexander Skvortsov,SBD,Multi-ply,No,M,100,M 70-74,,96.2,Russia,165,175,185,-190.5,185,125,132.5,135,,135,170,185,195,,195,515,1
Yuri Pestichev,SBD,Multi-ply,No,M,110,T 18-19,,106.2,Russia,250,270,280,,280,180,192.5,200,205,200,200,220,-227.5,,220,700,1
Valentin Bukov,SBD,Multi-ply,No,M,110,T 18-19,,105.25,Estonia,270,290,300,,300,-140,140,155,,155,220,240,-250,,240,695,2
Mikhail Brylin,SBD,Multi-ply,No,M,110,J 20-23,,106.95,Russia,342.5,365,375,,375,230,-240,240,,240,320,330,337.5,-347.5,337.5,952.5,1
Ilya Sidelnikov,SBD,Multi-ply,No,M,110,J 20-23,,109.65,Russia,-340,345,-367.5,,345,235,-245,-245,,235,315,-325,-330,,315,895,2
Evgeny Lunev,SBD,Multi-ply,No,M,110,J 20-23,,104.1,Russia,300,320,-330,,320,185,-195,-200,,185,220,240,-250,,240,745,3
Andrei Ayvazov,SBD,Multi-ply,No,M,110,Open,,105.15,Russia,380,410,-430,,410,230,-240,240,,240,330,-357.5,357.5,,357.5,1007.5,1
Alexei Kharchev,SBD,Multi-ply,No,M,110,Open,,108.65,Russia,340,350,355,,355,220,-225,225,,225,310,325,-330,,325,905,2
Alexander Zaitsev,SBD,Multi-ply,No,M,110,Open,,108.8,Russia,320,340,360,,360,200,210,-220,,210,300,-320,-320,,300,870,3
Alexander Ballod,SBD,Multi-ply,No,M,110,Open,,110,Russia,360,370,-380,,370,220,-227.5,-227.5,,220,280,-300,-300,,280,870,4
Andrei Petrov,SBD,Multi-ply,No,M,110,Open,,107.85,Russia,335,350,-360,,350,210,-220,-220,,210,260,280,300,,300,860,5
Nikolai Guk,SBD,Multi-ply,No,M,110,Open,,109.9,Russia,320,-342.5,342.5,,342.5,195,-202.5,-202.5,,195,-280,280,-290,,280,817.5,6
Vladimir Poletaev,SBD,Multi-ply,No,M,110,Open,,108.2,Russia,225,255,,,255,-262.5,-262.5,262.5,,262.5,250,272.5,,,272.5,790,7
Denis Nedoshivin,SBD,Multi-ply,No,M,110,Open,,106.15,Russia,-300,-300,-300,,,,,,,,,,,,,,DQ
Vladimir Blinkov,SBD,Multi-ply,No,M,110,Open,,108.25,Russia,350,360,370,,370,-230,230,237.5,,237.5,-320,-320,-320,,,,DQ
Vadim Pavlyuk,SBD,Multi-ply,No,M,110,M 40-44,,108.9,Russia,300,320,330,,330,200,-212.5,,,200,270,-285,-285,,270,800,1
Konstantin Makovskiy,SBD,Multi-ply,No,M,110,M 45-49,,108.75,Russia,235,245,255,,255,170,-180,-180,,170,230,,,,230,655,1
Alexander Larin,SBD,Multi-ply,No,M,110,M 55-59,,108.3,Russia,260,277.5,285,-300,285,160,170,175,,175,215,-225,-225,,215,675,1
Vasily Mazur,SBD,Multi-ply,No,M,125,J 20-23,,115.1,Transnistria,300,320,335,,335,185,200,215,,215,290,310,-320,,310,860,1
Ildar Gaynutdinov,SBD,Multi-ply,No,M,125,J 20-23,,110.7,Russia,265,-280,280,,280,170,-180,-180,,170,235,250,260,,260,710,2
Arthur Stepanov,SBD,Multi-ply,No,M,125,Open,,117.4,Russia,370,390,400,410,400,240,255,265,,265,330,350,-375,,350,1015,1
Mikhail Glazunov,SBD,Multi-ply,No,M,125,Open,,121.05,Russia,350,375,380,,380,250,270,280,,280,320,-340,-340,,320,980,2
Alexei Moskvichyov,SBD,Multi-ply,No,M,125,Open,,118.2,Russia,380,390,-400,,390,250,255,260,,260,320,325,-330,,325,975,3
Andrei Peterskiy,SBD,Multi-ply,No,M,125,Open,,118.85,Russia,-390,400,-420,,400,220,-230,-240,,220,310,325,330,,330,950,4
Oļeg Zaitsev,SBD,Multi-ply,No,M,125,Open,,113.1,Russia,-350,360,-370,,360,245,-255,-255,,245,280,295,,,295,900,5
Vadim Bratanov,SBD,Multi-ply,No,M,125,Open,,122.5,Russia,-330,330,350,,350,-210,210,225,,225,250,280,315,,315,890,6
Vadim Kiryushkin,SBD,Multi-ply,No,M,125,Open,,119.1,Russia,270,280,,,280,250,255,,,255,280,,,,280,815,7
Ivan Kurpishev,SBD,Multi-ply,No,M,125,Open,,115.15,Russia,-350,-350,-360,,,,,,,,,,,,,,DQ
Alexander Maximushkin,SBD,Multi-ply,No,M,125,M 55-59,,117.2,Russia,250,,,,250,240,-260.5,-260.5,,240,200,,,,200,690,1
Eduard Dobrõi,SBD,Multi-ply,No,M,125,M 65-69,,115.35,Estonia,130,162.5,,,162.5,120,-160,-160,,120,-100,100,,,100,382.5,1
Marko Traks,SBD,Multi-ply,No,M,140,T 18-19,,125.8,Estonia,200,-230,230,,230,160,-230,-230,,160,170,200,230,,230,620,1
Dmitriy Shabalin,SBD,Multi-ply,No,M,140,Open,,140,Russia,320,340,360,,360,280,-305,-305,,280,290,305,315,,315,955,1
Nikolai Koltakov,SBD,Multi-ply,No,M,140,Open,,125.1,Ukraine,320,340,360,,360,250,275,280,,280,270,-300,305,,305,945,2
Konstantin Gensirovsky,SBD,Multi-ply,No,M,140,Open,,129.4,Ukraine,370,380,390,,390,225,230,235,,235,300,,,,300,925,3
Kirill Sarychev,SBD,Single-ply,No,M,140+,T 18-19,,150.2,Russia,320,335,,,335,250,270,280,,280,260,280,300,,300,915,1
Igor Nastynov,SBD,Multi-ply,No,M,140+,Open,,151,Russia,450,-500,-500,,450,220,245,260,,260,290,315,340,,340,1050,1
Kirill Migalin,SBD,Multi-ply,No,M,140+,Open,,146.7,Russia,300,330,350,,350,220,235,245,,245,277.5,300,-310,,300,895,2
Igor Nastynov,SBD,Multi-ply,No,M,140+,M 45-49,,151,Russia,450,-500,-500,,450,220,245,260,,260,290,315,340,,340,1050,1
