Place,Name,State,WeightClassKg,BodyweightKg,BirthDate,Age,Best3SquatKg,Best3BenchKg,Best3DeadliftKg,TotalKg,Sex,Division,Equipment,Event,Deadlift4Kg
1,Lexus Valykeo,NC,60,57,,23,85,55,115,255,F,Juniors 20-23,Raw,SBD,
1,Sarah Ulrich,NC,75,70.3,,19,110,75,147.5,332.5,F,Juniors 18-19,Raw,SBD,
1,Stormy Mendez,NY,75,69,,23,135,85,152.5,372.5,F,Juniors 20-23,Raw,SBD,
2,Clara Frickmann,NC,75,73.9,,23,87.5,42.5,125,255,F,Juniors 20-23,Raw,SBD,
1,Endira Morales,NC,52,51.8,,30,107.5,65,142.5,315,F,Open,Raw,SBD,
1,Sarah Carver,NJ,56,55,,32,125,90,162.5,377.5,F,Open,Raw,SBD,
1,Lisa Morton,NC,60,57,,43,120,80,162.5,362.5,F,Open,Raw,SBD,
2,Candace Mewborn,NC,60,57.4,,27,105,45,110,260,F,Open,Raw,SBD,
1,Audrey Copeland,NC,67.5,66.5,,25,132.5,72.5,145,350,F,Open,Raw,SBD,
2,Jamie Maffeo,NC,67.5,65.9,,26,102.5,62.5,130,295,F,Open,Raw,SBD,
3,Sheetal Uthup,NC,67.5,64.7,,34,107.5,40,130,277.5,F,Open,Raw,SBD,
4,Monique Gareau,NC,67.5,62.2,,28,100,47.5,107.5,255,F,Open,Raw,SBD,
1,Rebekah Hartley,NC,75,73.4,,25,140,77.5,182.5,400,F,Open,Raw,SBD,
2,Stormy Mendez,NY,75,69,,23,135,85,152.5,372.5,F,Open,Raw,SBD,
3,Cari Andrew,NC,75,73.3,,34,142.5,67.5,135,345,F,Open,Raw,SBD,
4,Ali Schwartz,NC,75,72.2,,30,127.5,60,155,342.5,F,Open,Raw,SBD,
5,Ellen Connolly,NC,75,72,,41,110,62.5,130,302.5,F,Open,Raw,SBD,
6,Katie Friedman,NC,75,69.4,,41,107.5,60,130,297.5,F,Open,Raw,SBD,
1,Cheryl Willis,NC,82.5,81.3,,46,117.5,72.5,145,335,F,Open,Raw,SBD,
1,Jaclyn Shepard,NC,90,87.4,,32,150,83,170,403,F,Open,Raw,SBD,
2,Brittany Lynn,NC,90,86.4,,33,140,72.5,152.5,365,F,Open,Raw,SBD,
3,Kalia Robinson,NC,90,85.1,,34,117.5,67.5,155,340,F,Open,Raw,SBD,
4,Dawn Henderson,NC,90,86.7,,27,110,67.5,162.5,340,F,Open,Raw,SBD,
1,Bryanna Stoddard,NC,90+,118.1,,26,160,102.5,212.5,475,F,Open,Raw,SBD,
2,Melody Simpson,NC,90+,129.9,,36,165,105,195,465,F,Open,Raw,SBD,
3,Jillian Feliciano,NC,90+,118,,35,137.5,77.5,167.5,382.5,F,Open,Raw,SBD,
4,Layla Rivera,NC,90+,135.8,,40,122.5,72.5,130,325,F,Open,Raw,SBD,
1,Marisa Escolar,NC,67.5,65.4,,39,105,57.5,135,297.5,F,Submasters 35-39,Raw,SBD,
2,Dyanna Hough,NC,67.5,60.9,,37,117.5,55,112.5,285,F,Submasters 35-39,Raw,SBD,
1,Leeanna Tolles,NC,75,69.3,,39,115,47.5,110,272.5,F,Submasters 35-39,Raw,SBD,
1,Melody Simpson,NC,90+,129.9,,36,165,105,195,465,F,Submasters 35-39,Raw,SBD,
2,Jillian Feliciano,NC,90+,118,,35,137.5,77.5,167.5,382.5,F,Submasters 35-39,Raw,SBD,
3,Samantha Pierce,NC,90+,93.9,,35,137.5,60,137.5,335,F,Submasters 35-39,Raw,SBD,
1,Sinnikka Smith,NC,67.5,64.7,,44,75,62.5,142.5,280,F,Masters 40-44,Raw,SBD,
1,Ellen Connolly,NC,75,72,,41,110,62.5,130,302.5,F,Masters 40-44,Raw,SBD,
2,Katie Friedman,NC,75,69.4,,41,107.5,60,130,297.5,F,Masters 40-44,Raw,SBD,
1,Cheryl Willis,NC,82.5,81.3,,46,117.5,72.5,145,335,F,Masters 45-49,Raw,SBD,
1,Chontae Atti-Uptegrow,NC,90+,93.8,,40,142.5,80,182.5,405,F,Masters 40-44,Raw,SBD,
1,Elijah Robbins,NC,67.5,66.8,,15,142.5,85,177.5,405,M,Juniors 13-15,Raw,SBD,191
1,Darryl Stewart,WV,75,71.7,,22,162.5,120,230,512.5,M,Juniors 20-23,Raw,SBD,
2,Jacob Pace,NC,75,71.3,,22,130,82.5,182.5,395,M,Juniors 20-23,Raw,SBD,
1,Robert Harriss Evans,NC,82.5,78.4,,17,155,100,180,435,M,Juniors 16-17,Raw,SBD,
1,Dean Wright #1,NC,100,97.2,,19,202.5,145,237.5,585,M,Juniors 18-19,Raw,SBD,
1,Robert Ramsey #1,NC,100,98.5,,21,212.5,115,237.5,565,M,Juniors 20-23,Raw,SBD,
1,Andrew Wright #1,NC,110,105.4,,16,152.5,92.5,180,425,M,Juniors 16-17,Raw,SBD,
1,Kevin Kirby,NC,67.5,65,,24,132.5,70,165,367.5,M,Open,Raw,SBD,
1,Ralph Rodriguez,NC,75,73.9,,28,177.5,130,227.5,535,M,Open,Raw,SBD,
2,Christopher Garcia,NC,75,74.2,,31,160,135,200,495,M,Open,Raw,SBD,
3,David Johnson,NC,75,73.8,,26,145,90,180,415,M,Open,Raw,SBD,
1,Rex Anderson,NC,82.5,81.5,,29,227.5,140,277.5,645,M,Open,Raw,SBD,
2,Luis Contreras,NC,82.5,80.8,,39,207.5,145,250,602.5,M,Open,Raw,SBD,
3,Nathan Sugden,NC,82.5,81.8,,30,217.5,145,237.5,600,M,Open,Raw,SBD,
4,Christopher Anderson,NC,82.5,82.1,,32,177.5,125,200,502.5,M,Open,Raw,SBD,
5,Jonathan Cody,NC,82.5,77.5,,26,172.5,107.5,210,490,M,Open,Raw,SBD,
1,Evan Kardon,NC,90,90,,24,275,160,320,755,M,Open,Raw,SBD,
2,Chris Murray,NC,90,89.2,,31,227.5,165,280,672.5,M,Open,Raw,SBD,
3,Nicholas Murphy #1,NC,90,88.2,,26,230,152.5,265,647.5,M,Open,Raw,SBD,
4,Michael Holmes,NC,90,89.6,,32,210,152.5,252.5,615,M,Open,Raw,SBD,
5,Joseph Kuttickal,NC,90,88.8,,24,215,132.5,257.5,605,M,Open,Raw,SBD,
6,Christopher Plynnaar,NC,90,89.1,,24,207.5,137.5,227.5,572.5,M,Open,Raw,SBD,
1,Daniel Longo,NJ,100,96.5,,26,252.5,220,275,747.5,M,Open,Raw,SBD,
2,Brealon Ashworth,NC,100,98.5,,28,267.5,175,272.5,715,M,Open,Raw,SBD,
3,William Loyd,NC,100,95.3,1979-03-08,40,237.5,192.5,270,700,M,Open,Raw,SBD,
4,Austin Walters,NC,100,94.2,,31,240,165,265,670,M,Open,Raw,SBD,
5,Kane Bennett,NC,100,93.6,,37,227.5,175,265,667.5,M,Open,Raw,SBD,
6,Tyler Scaggs,NC,100,94.5,,24,225,152.5,252.5,630,M,Open,Raw,SBD,
7,Sean Driscoll,NC,100,95.5,,26,190,130,270,590,M,Open,Raw,SBD,
8,Dean Wright #1,NC,100,97.2,,19,202.5,145,237.5,585,M,Open,Raw,SBD,
9,Nathan Long,NC,100,96.3,,36,185,135,205,525,M,Open,Raw,SBD,
1,Ryan Daining,NC,110,109.5,,27,280,182.5,282.5,745,M,Open,Raw,SBD,
2,Micheal Spates,NC,110,106.2,,29,212.5,140,240,592.5,M,Open,Raw,SBD,
3,Tyler Heath,NC,110,107.3,,28,205,135,245,585,M,Open,Raw,SBD,
1,Michael Kodweis,NC,125,121.6,,37,275,185,277.5,737.5,M,Open,Raw,SBD,
2,Marshall Cullars,NC,125,125,,28,190,147.5,235,572.5,M,Open,Raw,SBD,
3,Donald Bass,NC,125,121.4,,60,195,150,220,565,M,Open,Raw,SBD,
1,David Auge,NC,140,139.7,,33,245,187.5,272.5,705,M,Open,Raw,SBD,
2,Bry Pinkleton,VA,140,127.9,,26,217.5,160,295,672.5,M,Open,Raw,SBD,
1,Christian Garcia,NC,140+,140.8,,28,227.5,157.5,290,675,M,Open,Raw,SBD,
2,Kyle Woods,NC,140+,163.5,,31,250,160,250,660,M,Open,Raw,SBD,
1,John Sankel,NC,75,68.1,,36,155,87.5,200,442.5,M,Submasters 35-39,Raw,SBD,
1,Thomas Nguyen,NC,82.5,81.3,,39,155,115,192.5,462.5,M,Submasters 35-39,Raw,SBD,
1,Kane Bennett,NC,100,93.6,,37,227.5,175,265,667.5,M,Submasters 35-39,Raw,SBD,
1,Michael Kodweis,NC,125,121.6,,37,275,185,277.5,737.5,M,Submasters 35-39,Raw,SBD,
1,William Loyd,NC,100,95.3,,40,237.5,192.5,270,700,M,Masters 40-44,Raw,SBD,
1,Donald Bass,NC,125,121.4,,60,195,150,220,565,M,Masters 60-64,Raw,SBD,
1,Peter Duffy,NC,140,129.4,,47,262.5,157.5,240,660,M,Masters 45-49,Raw,SBD,
1,Stephanie Seefeldt,NC,90+,97.8,,27,160,83,187.5,430.5,F,Open,Wraps,SBD,
1,Joanne Pope-Clark,NC,82.5,81.2,,47,80,50,122.5,252.5,F,Masters 45-49,Wraps,SBD,
1,Darryl Webster,NC,90,88.6,,23,232.5,185,215,632.5,M,Juniors 20-23,Wraps,SBD,
1,Michael Bussman,NC,82.5,80.7,,28,195,117.5,187.5,500,M,Open,Wraps,SBD,
1,Danny Steele,NC,100,99.2,,30,280,162.5,272.5,715,M,Open,Wraps,SBD,
2,Joshua Riley,NC,100,93.3,,27,247.5,157.5,292.5,697.5,M,Open,Wraps,SBD,
DQ,Johann GylFason,NC,100,99.5,,38,,,,,M,Open,Wraps,SBD,
DQ,Jeremy Scott,NC,110,109.7,,29,272.5,150,,,M,Open,Wraps,SBD,
1,Marcus Crowder,NC,140,125.8,,26,362.5,265,360,987.5,M,Open,Wraps,SBD,
1,Trevor Vasser,VA,140+,172.2,,28,350,227.5,360,937.5,M,Open,Wraps,SBD,
1,Charles Walton,NC,82.5,80.6,,62,175,137.5,215,527.5,M,Masters 60-64,Wraps,SBD,
1,Peter Prendergast,NC,90,87,,61,160,115,200,475,M,Masters 60-64,Multi-ply,SBD,
1,Melody Simpson,NC,90+,129.9,,36,,105,,105,F,Open,Raw,B,
1,Melody Simpson,NC,90+,129.9,,36,,105,,105,F,Submasters 35-39,Raw,B,
1,Omar Barnes,NC,140,130,,38,,200,,200,M,Open,Raw,B,
1,Omar Barnes,NC,140,130,,38,,200,,200,M,Submasters 35-39,Raw,B,
1,Daryl Beard,NC,90,89.9,,48,,145,,145,M,Masters 45-49,Raw,B,
DQ,Anthony Davie,VA,140,138.2,,44,,,,,M,Masters 40-44,Raw,B,
DQ,Jeremy Scott,NC,110,109.7,,29,,,,,M,Open,Raw,D,
1,John Allen,NC,60,58,,81,,,102.5,102.5,M,Masters 80+,Raw,D,105
1,Mike Kenney,NY,100,95.9,,46,,,240,240,M,Masters 45-49,Single-ply,D,
1,Richie Rogers,NC,100,95.3,,32,,140,242.5,382.5,M,Open,Raw,BD,
